 
            ,'  , `.     MAGUS                                           
        ,-+-,.' _ |      (v.1.0.5 RELEASE)                                    
      ,-+-. ;   , ||   =========================   ,--,  ============            
     ,--.'|'   |  ;|             ,----._,.       ,'_ /|   .--.--.    
    |   |  ,', |  ':  ,--.--.   /   /  ' /  .--. |  | :  /  /    '   
    |   | /  | |  || /       \ |   :     |,'_ /| :  . | |  :  /`./   
    '   | :  | :  |,.--.  .-. ||   | .\  .|  ' | |  . . |  :  ;_     
    ;   . |  ; |--'  \__\/: . ..   ; ';  ||  | ' |  | |  \  \    `.  
    |   : |  | ,     ," .--.; |'   .   . |:  | : ;  ; |   `----.   \ 
    |   : '  |/     /  /  ,.  | `---`-'| |'  :  `--'   \ /  /`--'  / 
    ;   | |`-'     ;  :   .'   \.'__/\_: |:  ,      .-./'--'.     /  
    |   ;/         |  ,     .-./|   :    : `--`----'      `--'---'   
    '---'           `--`---'     \   \  /                            
                    

============== Initialize ==============
calculator not given, auto guess by jobprefix
============= Generation 1 =============
Reading Seeds ...
Generate new initial population with 50 individuals:
  random: 50
construct goodPop
construct keepPop
best ind:
Al8Mg4O16 enthalpy: -23.395, fit: {'enthalpy': 23.395}
============= Generation 2 =============
change volRatio from 1.7 to 1.6638596768493696
OP infomation: 
+---------------------+--------------+---------------+------------+
|       Operator      | Probability  | SelectedTimes | SuccessNum |
+---------------------+--------------+---------------+------------+
| CutAndSplicePairing |    14.29%    |       3       |     3      |
|     SlipMutation    |    14.29%    |       8       |     8      |
|   LatticeMutation   |    14.29%    |       7       |     7      |
|    RippleMutation   |    14.29%    |       6       |     6      |
|    RattleMutation   |    14.29%    |       6       |     6      |
|     PermMutation    |    14.29%    |       5       |     5      |
|    RotateMutation   |    14.29%    |       5       |     5      |
+---------------------+--------------+---------------+------------+
Reading Seeds ...
Generate new initial population with 49 individuals:
  RippleMutation: 5
  LatticeMutation: 4
  random: 22
  RotateMutation: 3
  RattleMutation: 3
  PermMutation: 4
  SlipMutation: 5
  CutAndSplicePairing: 3
construct goodPop
construct keepPop
best ind:
Al8Mg4O16 enthalpy: -23.395, fit: {'enthalpy': 23.395}
============= Generation 3 =============
change volRatio from 1.6638596768493696 to 1.6345024304458695
OP infomation: 
+---------------------+--------------+---------------+------------+
|       Operator      | Probability  | SelectedTimes | SuccessNum |
+---------------------+--------------+---------------+------------+
| CutAndSplicePairing |    14.29%    |       8       |     8      |
|     SlipMutation    |    14.29%    |       6       |     6      |
|   LatticeMutation   |    14.29%    |       3       |     3      |
|    RippleMutation   |    14.29%    |       3       |     3      |
|    RattleMutation   |    14.29%    |       4       |     4      |
|     PermMutation    |    14.29%    |       5       |     5      |
|    RotateMutation   |    14.29%    |       11      |     11     |
+---------------------+--------------+---------------+------------+
Reading Seeds ...
Generate new initial population with 50 individuals:
  RippleMutation: 2
  LatticeMutation: 3
  random: 11
  RotateMutation: 11
  RattleMutation: 4
  PermMutation: 5
  SlipMutation: 6
  CutAndSplicePairing: 8
construct goodPop
construct keepPop
best ind:
Al8Mg4O16 enthalpy: -23.395, fit: {'enthalpy': 23.395}
============= Generation 4 =============
change volRatio from 1.6345024304458695 to 1.6186748081065185
OP infomation: 
+---------------------+--------------+---------------+------------+
|       Operator      | Probability  | SelectedTimes | SuccessNum |
+---------------------+--------------+---------------+------------+
| CutAndSplicePairing |    14.29%    |       8       |     8      |
|     SlipMutation    |    14.29%    |       8       |     8      |
|   LatticeMutation   |    14.29%    |       6       |     6      |
|    RippleMutation   |    14.29%    |       4       |     4      |
|    RattleMutation   |    14.29%    |       5       |     5      |
|     PermMutation    |    14.29%    |       3       |     3      |
|    RotateMutation   |    14.29%    |       6       |     6      |
+---------------------+--------------+---------------+------------+
Reading Seeds ...
Generate new initial population with 50 individuals:
  RippleMutation: 4
  LatticeMutation: 6
  random: 11
  RotateMutation: 5
  RattleMutation: 5
  PermMutation: 3
  SlipMutation: 8
  CutAndSplicePairing: 8
construct goodPop
construct keepPop
best ind:
Al8Mg4O16 enthalpy: -23.395, fit: {'enthalpy': 23.395}
============= Generation 5 =============
change volRatio from 1.6186748081065185 to 1.6207934600789826
OP infomation: 
+---------------------+--------------+---------------+------------+
|       Operator      | Probability  | SelectedTimes | SuccessNum |
+---------------------+--------------+---------------+------------+
| CutAndSplicePairing |    14.29%    |       8       |     8      |
|     SlipMutation    |    14.29%    |       6       |     6      |
|   LatticeMutation   |    14.29%    |       6       |     6      |
|    RippleMutation   |    14.29%    |       8       |     8      |
|    RattleMutation   |    14.29%    |       6       |     6      |
|     PermMutation    |    14.29%    |       2       |     2      |
|    RotateMutation   |    14.29%    |       4       |     4      |
+---------------------+--------------+---------------+------------+
Reading Seeds ...
Generate new initial population with 50 individuals:
  RippleMutation: 8
  LatticeMutation: 6
  random: 10
  RotateMutation: 4
  RattleMutation: 6
  PermMutation: 2
  SlipMutation: 6
  CutAndSplicePairing: 8
construct goodPop
construct keepPop
best ind:
Al8Mg4O16 enthalpy: -23.395, fit: {'enthalpy': 23.395}
============= Generation 6 =============
change volRatio from 1.6207934600789826 to 1.6178768332694462
OP infomation: 
+---------------------+--------------+---------------+------------+
|       Operator      | Probability  | SelectedTimes | SuccessNum |
+---------------------+--------------+---------------+------------+
| CutAndSplicePairing |    14.29%    |       4       |     4      |
|     SlipMutation    |    14.29%    |       8       |     8      |
|   LatticeMutation   |    14.29%    |       8       |     8      |
|    RippleMutation   |    14.29%    |       3       |     3      |
|    RattleMutation   |    14.29%    |       2       |     2      |
|     PermMutation    |    14.29%    |       8       |     8      |
|    RotateMutation   |    14.29%    |       7       |     7      |
+---------------------+--------------+---------------+------------+
Reading Seeds ...
Generate new initial population with 50 individuals:
  RippleMutation: 3
  LatticeMutation: 8
  random: 10
  RotateMutation: 7
  RattleMutation: 2
  PermMutation: 8
  SlipMutation: 8
  CutAndSplicePairing: 4
construct goodPop
construct keepPop
best ind:
Al8Mg4O16 enthalpy: -23.395, fit: {'enthalpy': 23.395}
============= Generation 7 =============
change volRatio from 1.6178768332694462 to 1.6195180922917614
OP infomation: 
+---------------------+--------------+---------------+------------+
|       Operator      | Probability  | SelectedTimes | SuccessNum |
+---------------------+--------------+---------------+------------+
| CutAndSplicePairing |    14.29%    |       3       |     3      |
|     SlipMutation    |    14.29%    |       7       |     7      |
|   LatticeMutation   |    14.29%    |       3       |     3      |
|    RippleMutation   |    14.29%    |       10      |     10     |
|    RattleMutation   |    14.29%    |       8       |     8      |
|     PermMutation    |    14.29%    |       6       |     6      |
|    RotateMutation   |    14.29%    |       3       |     3      |
+---------------------+--------------+---------------+------------+
Reading Seeds ...
Generate new initial population with 50 individuals:
  RippleMutation: 10
  LatticeMutation: 3
  random: 10
  RotateMutation: 3
  RattleMutation: 8
  PermMutation: 6
  SlipMutation: 7
  CutAndSplicePairing: 3
construct goodPop
construct keepPop
best ind:
Al8Mg4O16 enthalpy: -23.395, fit: {'enthalpy': 23.395}
============= Generation 8 =============
change volRatio from 1.6195180922917614 to 1.6207736323105821
OP infomation: 
+---------------------+--------------+---------------+------------+
|       Operator      | Probability  | SelectedTimes | SuccessNum |
+---------------------+--------------+---------------+------------+
| CutAndSplicePairing |    14.29%    |       6       |     6      |
|     SlipMutation    |    14.29%    |       7       |     7      |
|   LatticeMutation   |    14.29%    |       5       |     5      |
|    RippleMutation   |    14.29%    |       5       |     5      |
|    RattleMutation   |    14.29%    |       6       |     6      |
|     PermMutation    |    14.29%    |       5       |     5      |
|    RotateMutation   |    14.29%    |       6       |     6      |
+---------------------+--------------+---------------+------------+
Reading Seeds ...
Generate new initial population with 50 individuals:
  RippleMutation: 5
  LatticeMutation: 5
  random: 10
  RotateMutation: 6
  RattleMutation: 6
  PermMutation: 5
  SlipMutation: 7
  CutAndSplicePairing: 6
construct goodPop
construct keepPop
best ind:
Al8Mg4O16 enthalpy: -23.395, fit: {'enthalpy': 23.395}
============= Generation 9 =============
change volRatio from 1.6207736323105821 to 1.6191586958558053
OP infomation: 
+---------------------+--------------+---------------+------------+
|       Operator      | Probability  | SelectedTimes | SuccessNum |
+---------------------+--------------+---------------+------------+
| CutAndSplicePairing |    14.29%    |       4       |     4      |
|     SlipMutation    |    14.29%    |       1       |     1      |
|   LatticeMutation   |    14.29%    |       6       |     6      |
|    RippleMutation   |    14.29%    |       7       |     7      |
|    RattleMutation   |    14.29%    |       11      |     11     |
|     PermMutation    |    14.29%    |       5       |     5      |
|    RotateMutation   |    14.29%    |       6       |     6      |
+---------------------+--------------+---------------+------------+
Reading Seeds ...
Generate new initial population with 50 individuals:
  RippleMutation: 6
  LatticeMutation: 6
  random: 14
  RotateMutation: 6
  RattleMutation: 10
  PermMutation: 5
  SlipMutation: 1
  CutAndSplicePairing: 2
construct goodPop
construct keepPop
best ind:
Al8Mg4O16 enthalpy: -23.395, fit: {'enthalpy': 23.395}
============ Generation 10 =============
change volRatio from 1.6191586958558053 to 1.6204457875351042
OP infomation: 
+---------------------+--------------+---------------+------------+
|       Operator      | Probability  | SelectedTimes | SuccessNum |
+---------------------+--------------+---------------+------------+
| CutAndSplicePairing |    14.29%    |       4       |     4      |
|     SlipMutation    |    14.29%    |       9       |     9      |
|   LatticeMutation   |    14.29%    |       4       |     4      |
|    RippleMutation   |    14.29%    |       8       |     8      |
|    RattleMutation   |    14.29%    |       4       |     4      |
|     PermMutation    |    14.29%    |       7       |     7      |
|    RotateMutation   |    14.29%    |       4       |     4      |
+---------------------+--------------+---------------+------------+
Reading Seeds ...
Generate new initial population with 50 individuals:
  RippleMutation: 7
  LatticeMutation: 4
  random: 12
  RotateMutation: 4
  RattleMutation: 4
  PermMutation: 7
  SlipMutation: 9
  CutAndSplicePairing: 3
construct goodPop
construct keepPop
best ind:
Al8Mg4O16 enthalpy: -23.395, fit: {'enthalpy': 23.395}
============ Generation 11 =============
change volRatio from 1.6204457875351042 to 1.6576587246303363
OP infomation: 
+---------------------+--------------+---------------+------------+
|       Operator      | Probability  | SelectedTimes | SuccessNum |
+---------------------+--------------+---------------+------------+
| CutAndSplicePairing |    14.29%    |       6       |     6      |
|     SlipMutation    |    14.29%    |       6       |     6      |
|   LatticeMutation   |    14.29%    |       7       |     7      |
|    RippleMutation   |    14.29%    |       2       |     2      |
|    RattleMutation   |    14.29%    |       11      |     11     |
|     PermMutation    |    14.29%    |       4       |     4      |
|    RotateMutation   |    14.29%    |       4       |     4      |
+---------------------+--------------+---------------+------------+
Reading Seeds ...
Generate new initial population with 50 individuals:
  RippleMutation: 2
  LatticeMutation: 7
  random: 10
  RotateMutation: 4
  RattleMutation: 11
  PermMutation: 4
  SlipMutation: 6
  CutAndSplicePairing: 6
construct goodPop
construct keepPop
best ind:
Al8Mg4O16 enthalpy: -23.395, fit: {'enthalpy': 23.395}
============ Generation 12 =============
change volRatio from 1.6576587246303363 to 1.6300792666230164
OP infomation: 
+---------------------+--------------+---------------+------------+
|       Operator      | Probability  | SelectedTimes | SuccessNum |
+---------------------+--------------+---------------+------------+
| CutAndSplicePairing |    14.29%    |       4       |     4      |
|     SlipMutation    |    14.29%    |       9       |     9      |
|   LatticeMutation   |    14.29%    |       4       |     4      |
|    RippleMutation   |    14.29%    |       5       |     5      |
|    RattleMutation   |    14.29%    |       8       |     8      |
|     PermMutation    |    14.29%    |       6       |     6      |
|    RotateMutation   |    14.29%    |       4       |     4      |
+---------------------+--------------+---------------+------------+
Reading Seeds ...
Generate new initial population with 50 individuals:
  RippleMutation: 5
  LatticeMutation: 4
  random: 10
  RotateMutation: 4
  RattleMutation: 8
  PermMutation: 6
  SlipMutation: 9
  CutAndSplicePairing: 4
construct goodPop
construct keepPop
best ind:
Al8Mg4O16 enthalpy: -23.395, fit: {'enthalpy': 23.395}
============ Generation 13 =============
change volRatio from 1.6300792666230164 to 1.6228937615083927
OP infomation: 
+---------------------+--------------+---------------+------------+
|       Operator      | Probability  | SelectedTimes | SuccessNum |
+---------------------+--------------+---------------+------------+
| CutAndSplicePairing |    14.29%    |       3       |     3      |
|     SlipMutation    |    14.29%    |       8       |     8      |
|   LatticeMutation   |    14.29%    |       5       |     5      |
|    RippleMutation   |    14.29%    |       6       |     6      |
|    RattleMutation   |    14.29%    |       6       |     6      |
|     PermMutation    |    14.29%    |       5       |     5      |
|    RotateMutation   |    14.29%    |       7       |     7      |
+---------------------+--------------+---------------+------------+
Reading Seeds ...
Generate new initial population with 50 individuals:
  RippleMutation: 6
  LatticeMutation: 4
  random: 12
  RotateMutation: 6
  RattleMutation: 6
  PermMutation: 5
  SlipMutation: 8
  CutAndSplicePairing: 3
construct goodPop
construct keepPop
best ind:
Al8Mg4O16 enthalpy: -23.395, fit: {'enthalpy': 23.395}
============ Generation 14 =============
change volRatio from 1.6228937615083927 to 1.6170205316744648
OP infomation: 
+---------------------+--------------+---------------+------------+
|       Operator      | Probability  | SelectedTimes | SuccessNum |
+---------------------+--------------+---------------+------------+
| CutAndSplicePairing |    14.29%    |       3       |     3      |
|     SlipMutation    |    14.29%    |       5       |     5      |
|   LatticeMutation   |    14.29%    |       5       |     5      |
|    RippleMutation   |    14.29%    |       10      |     10     |
|    RattleMutation   |    14.29%    |       9       |     9      |
|     PermMutation    |    14.29%    |       6       |     6      |
|    RotateMutation   |    14.29%    |       2       |     2      |
+---------------------+--------------+---------------+------------+
Reading Seeds ...
Generate new initial population with 50 individuals:
  RippleMutation: 10
  LatticeMutation: 5
  random: 10
  RotateMutation: 2
  RattleMutation: 9
  PermMutation: 6
  SlipMutation: 5
  CutAndSplicePairing: 3
construct goodPop
construct keepPop
best ind:
Al8Mg4O16 enthalpy: -23.395, fit: {'enthalpy': 23.395}
============ Generation 15 =============
change volRatio from 1.6170205316744648 to 1.6150511585292662
OP infomation: 
+---------------------+--------------+---------------+------------+
|       Operator      | Probability  | SelectedTimes | SuccessNum |
+---------------------+--------------+---------------+------------+
| CutAndSplicePairing |    14.29%    |       6       |     6      |
|     SlipMutation    |    14.29%    |       5       |     5      |
|   LatticeMutation   |    14.29%    |       7       |     7      |
|    RippleMutation   |    14.29%    |       6       |     6      |
|    RattleMutation   |    14.29%    |       4       |     4      |
|     PermMutation    |    14.29%    |       6       |     6      |
|    RotateMutation   |    14.29%    |       6       |     6      |
+---------------------+--------------+---------------+------------+
Reading Seeds ...
Generate new initial population with 50 individuals:
  RippleMutation: 6
  LatticeMutation: 7
  random: 10
  RotateMutation: 6
  RattleMutation: 4
  PermMutation: 6
  SlipMutation: 5
  CutAndSplicePairing: 6
construct goodPop
construct keepPop
best ind:
Al8Mg4O16 enthalpy: -23.395, fit: {'enthalpy': 23.395}
============ Generation 16 =============
change volRatio from 1.6150511585292662 to 1.6181597578623974
OP infomation: 
+---------------------+--------------+---------------+------------+
|       Operator      | Probability  | SelectedTimes | SuccessNum |
+---------------------+--------------+---------------+------------+
| CutAndSplicePairing |    14.29%    |       5       |     5      |
|     SlipMutation    |    14.29%    |       4       |     4      |
|   LatticeMutation   |    14.29%    |       9       |     9      |
|    RippleMutation   |    14.29%    |       6       |     6      |
|    RattleMutation   |    14.29%    |       4       |     4      |
|     PermMutation    |    14.29%    |       5       |     5      |
|    RotateMutation   |    14.29%    |       7       |     7      |
+---------------------+--------------+---------------+------------+
Reading Seeds ...
Generate new initial population with 50 individuals:
  RippleMutation: 6
  LatticeMutation: 9
  random: 11
  RotateMutation: 7
  RattleMutation: 4
  PermMutation: 5
  SlipMutation: 3
  CutAndSplicePairing: 5
construct goodPop
construct keepPop
best ind:
Al8Mg4O16 enthalpy: -23.395, fit: {'enthalpy': 23.395}
============ Generation 17 =============
change volRatio from 1.6181597578623974 to 1.619249764827221
OP infomation: 
+---------------------+--------------+---------------+------------+
|       Operator      | Probability  | SelectedTimes | SuccessNum |
+---------------------+--------------+---------------+------------+
| CutAndSplicePairing |    14.29%    |       7       |     7      |
|     SlipMutation    |    14.29%    |       2       |     2      |
|   LatticeMutation   |    14.29%    |       4       |     4      |
|    RippleMutation   |    14.29%    |       7       |     7      |
|    RattleMutation   |    14.29%    |       5       |     5      |
|     PermMutation    |    14.29%    |       9       |     9      |
|    RotateMutation   |    14.29%    |       6       |     6      |
+---------------------+--------------+---------------+------------+
Reading Seeds ...
Generate new initial population with 50 individuals:
  RippleMutation: 7
  LatticeMutation: 4
  random: 11
  RotateMutation: 6
  RattleMutation: 5
  PermMutation: 9
  SlipMutation: 2
  CutAndSplicePairing: 6
construct goodPop
construct keepPop
best ind:
Al8Mg4O16 enthalpy: -23.395, fit: {'enthalpy': 23.395}
============ Generation 18 =============
change volRatio from 1.619249764827221 to 1.6314077515262484
OP infomation: 
+---------------------+--------------+---------------+------------+
|       Operator      | Probability  | SelectedTimes | SuccessNum |
+---------------------+--------------+---------------+------------+
| CutAndSplicePairing |    14.29%    |       7       |     7      |
|     SlipMutation    |    14.29%    |       4       |     4      |
|   LatticeMutation   |    14.29%    |       3       |     3      |
|    RippleMutation   |    14.29%    |       8       |     8      |
|    RattleMutation   |    14.29%    |       2       |     2      |
|     PermMutation    |    14.29%    |       11      |     11     |
|    RotateMutation   |    14.29%    |       5       |     5      |
+---------------------+--------------+---------------+------------+
Reading Seeds ...
Generate new initial population with 50 individuals:
  RippleMutation: 8
  LatticeMutation: 2
  random: 14
  RotateMutation: 3
  RattleMutation: 2
  PermMutation: 11
  SlipMutation: 4
  CutAndSplicePairing: 6
construct goodPop
construct keepPop
best ind:
Al8Mg4O16 enthalpy: -23.395, fit: {'enthalpy': 23.395}
============ Generation 19 =============
change volRatio from 1.6314077515262484 to 1.6248588858298645
OP infomation: 
+---------------------+--------------+---------------+------------+
|       Operator      | Probability  | SelectedTimes | SuccessNum |
+---------------------+--------------+---------------+------------+
| CutAndSplicePairing |    14.29%    |       8       |     8      |
|     SlipMutation    |    14.29%    |       2       |     2      |
|   LatticeMutation   |    14.29%    |       8       |     8      |
|    RippleMutation   |    14.29%    |       8       |     8      |
|    RattleMutation   |    14.29%    |       3       |     3      |
|     PermMutation    |    14.29%    |       7       |     7      |
|    RotateMutation   |    14.29%    |       4       |     4      |
+---------------------+--------------+---------------+------------+
Reading Seeds ...
Generate new initial population with 50 individuals:
  RippleMutation: 8
  LatticeMutation: 8
  random: 12
  RotateMutation: 4
  RattleMutation: 2
  PermMutation: 7
  SlipMutation: 1
  CutAndSplicePairing: 8
construct goodPop
construct keepPop
best ind:
Al8Mg4O16 enthalpy: -23.395, fit: {'enthalpy': 23.395}
============ Generation 20 =============
change volRatio from 1.6248588858298645 to 1.623299386294255
OP infomation: 
+---------------------+--------------+---------------+------------+
|       Operator      | Probability  | SelectedTimes | SuccessNum |
+---------------------+--------------+---------------+------------+
| CutAndSplicePairing |    14.29%    |       7       |     7      |
|     SlipMutation    |    14.29%    |       11      |     11     |
|   LatticeMutation   |    14.29%    |       5       |     5      |
|    RippleMutation   |    14.29%    |       3       |     3      |
|    RattleMutation   |    14.29%    |       7       |     7      |
|     PermMutation    |    14.29%    |       5       |     5      |
|    RotateMutation   |    14.29%    |       2       |     2      |
+---------------------+--------------+---------------+------------+
Reading Seeds ...
Generate new initial population with 50 individuals:
  RippleMutation: 3
  LatticeMutation: 5
  random: 10
  RotateMutation: 2
  RattleMutation: 7
  PermMutation: 5
  SlipMutation: 11
  CutAndSplicePairing: 7
construct goodPop
construct keepPop
best ind:
Al8Mg4O16 enthalpy: -23.395, fit: {'enthalpy': 23.395}
============ Generation 21 =============
change volRatio from 1.623299386294255 to 1.622026104410776
OP infomation: 
+---------------------+--------------+---------------+------------+
|       Operator      | Probability  | SelectedTimes | SuccessNum |
+---------------------+--------------+---------------+------------+
| CutAndSplicePairing |    14.29%    |       6       |     6      |
|     SlipMutation    |    14.29%    |       8       |     8      |
|   LatticeMutation   |    14.29%    |       7       |     7      |
|    RippleMutation   |    14.29%    |       4       |     4      |
|    RattleMutation   |    14.29%    |       7       |     7      |
|     PermMutation    |    14.29%    |       4       |     4      |
|    RotateMutation   |    14.29%    |       4       |     4      |
+---------------------+--------------+---------------+------------+
Reading Seeds ...
Generate new initial population with 50 individuals:
  RippleMutation: 4
  LatticeMutation: 7
  random: 10
  RotateMutation: 4
  RattleMutation: 7
  PermMutation: 4
  SlipMutation: 8
  CutAndSplicePairing: 6
construct goodPop
construct keepPop
best ind:
Al8Mg4O16 enthalpy: -23.395, fit: {'enthalpy': 23.395}
============ Generation 22 =============
change volRatio from 1.622026104410776 to 1.6219678784330063
OP infomation: 
+---------------------+--------------+---------------+------------+
|       Operator      | Probability  | SelectedTimes | SuccessNum |
+---------------------+--------------+---------------+------------+
| CutAndSplicePairing |    14.29%    |       7       |     7      |
|     SlipMutation    |    14.29%    |       2       |     2      |
|   LatticeMutation   |    14.29%    |       5       |     5      |
|    RippleMutation   |    14.29%    |       7       |     7      |
|    RattleMutation   |    14.29%    |       9       |     9      |
|     PermMutation    |    14.29%    |       5       |     5      |
|    RotateMutation   |    14.29%    |       5       |     5      |
+---------------------+--------------+---------------+------------+
Reading Seeds ...
Generate new initial population with 50 individuals:
  RippleMutation: 7
  LatticeMutation: 5
  random: 12
  RotateMutation: 5
  RattleMutation: 9
  PermMutation: 5
  SlipMutation: 2
  CutAndSplicePairing: 5
construct goodPop
construct keepPop
best ind:
Al8Mg4O16 enthalpy: -23.395, fit: {'enthalpy': 23.395}
============ Generation 23 =============
change volRatio from 1.6219678784330063 to 1.6161346693920646
OP infomation: 
+---------------------+--------------+---------------+------------+
|       Operator      | Probability  | SelectedTimes | SuccessNum |
+---------------------+--------------+---------------+------------+
| CutAndSplicePairing |    14.29%    |       5       |     5      |
|     SlipMutation    |    14.29%    |       5       |     5      |
|   LatticeMutation   |    14.29%    |       5       |     5      |
|    RippleMutation   |    14.29%    |       9       |     9      |
|    RattleMutation   |    14.29%    |       6       |     6      |
|     PermMutation    |    14.29%    |       6       |     6      |
|    RotateMutation   |    14.29%    |       4       |     4      |
+---------------------+--------------+---------------+------------+
Reading Seeds ...
Generate new initial population with 50 individuals:
  RippleMutation: 9
  LatticeMutation: 4
  random: 15
  RotateMutation: 4
  RattleMutation: 5
  PermMutation: 4
  SlipMutation: 4
  CutAndSplicePairing: 5
construct goodPop
construct keepPop
best ind:
Al8Mg4O16 enthalpy: -23.395, fit: {'enthalpy': 23.395}
============ Generation 24 =============
change volRatio from 1.6161346693920646 to 1.62151735853555
OP infomation: 
+---------------------+--------------+---------------+------------+
|       Operator      | Probability  | SelectedTimes | SuccessNum |
+---------------------+--------------+---------------+------------+
| CutAndSplicePairing |    14.29%    |       4       |     4      |
|     SlipMutation    |    14.29%    |       6       |     6      |
|   LatticeMutation   |    14.29%    |       7       |     7      |
|    RippleMutation   |    14.29%    |       11      |     11     |
|    RattleMutation   |    14.29%    |       4       |     4      |
|     PermMutation    |    14.29%    |       3       |     3      |
|    RotateMutation   |    14.29%    |       5       |     5      |
+---------------------+--------------+---------------+------------+
Reading Seeds ...
Generate new initial population with 50 individuals:
  RippleMutation: 11
  LatticeMutation: 6
  random: 12
  RotateMutation: 5
  RattleMutation: 4
  PermMutation: 2
  SlipMutation: 6
  CutAndSplicePairing: 4
construct goodPop
construct keepPop
best ind:
Al8Mg4O16 enthalpy: -23.395, fit: {'enthalpy': 23.395}
============ Generation 25 =============
change volRatio from 1.62151735853555 to 1.619013430365643
OP infomation: 
+---------------------+--------------+---------------+------------+
|       Operator      | Probability  | SelectedTimes | SuccessNum |
+---------------------+--------------+---------------+------------+
| CutAndSplicePairing |    14.29%    |       5       |     5      |
|     SlipMutation    |    14.29%    |       7       |     7      |
|   LatticeMutation   |    14.29%    |       5       |     5      |
|    RippleMutation   |    14.29%    |       5       |     5      |
|    RattleMutation   |    14.29%    |       3       |     3      |
|     PermMutation    |    14.29%    |       7       |     7      |
|    RotateMutation   |    14.29%    |       8       |     8      |
+---------------------+--------------+---------------+------------+
Reading Seeds ...
Generate new initial population with 50 individuals:
  RippleMutation: 5
  LatticeMutation: 5
  random: 10
  RotateMutation: 8
  RattleMutation: 3
  PermMutation: 7
  SlipMutation: 7
  CutAndSplicePairing: 5
construct goodPop
construct keepPop
best ind:
Al8Mg4O16 enthalpy: -23.395, fit: {'enthalpy': 23.395}
============ Generation 26 =============
change volRatio from 1.619013430365643 to 1.6201876440160914
OP infomation: 
+---------------------+--------------+---------------+------------+
|       Operator      | Probability  | SelectedTimes | SuccessNum |
+---------------------+--------------+---------------+------------+
| CutAndSplicePairing |    14.29%    |       8       |     8      |
|     SlipMutation    |    14.29%    |       6       |     6      |
|   LatticeMutation   |    14.29%    |       8       |     8      |
|    RippleMutation   |    14.29%    |       3       |     3      |
|    RattleMutation   |    14.29%    |       9       |     9      |
|     PermMutation    |    14.29%    |       4       |     4      |
|    RotateMutation   |    14.29%    |       2       |     2      |
+---------------------+--------------+---------------+------------+
Reading Seeds ...
Generate new initial population with 50 individuals:
  RippleMutation: 3
  LatticeMutation: 8
  random: 10
  RotateMutation: 2
  RattleMutation: 9
  PermMutation: 4
  SlipMutation: 6
  CutAndSplicePairing: 8
construct goodPop
construct keepPop
best ind:
Al8Mg4O16 enthalpy: -23.395, fit: {'enthalpy': 23.395}
============ Generation 27 =============
change volRatio from 1.6201876440160914 to 1.6250611980810856
OP infomation: 
+---------------------+--------------+---------------+------------+
|       Operator      | Probability  | SelectedTimes | SuccessNum |
+---------------------+--------------+---------------+------------+
| CutAndSplicePairing |    14.29%    |       8       |     8      |
|     SlipMutation    |    14.29%    |       8       |     8      |
|   LatticeMutation   |    14.29%    |       4       |     4      |
|    RippleMutation   |    14.29%    |       3       |     3      |
|    RattleMutation   |    14.29%    |       5       |     5      |
|     PermMutation    |    14.29%    |       8       |     8      |
|    RotateMutation   |    14.29%    |       4       |     4      |
+---------------------+--------------+---------------+------------+
Reading Seeds ...
Generate new initial population with 50 individuals:
  RippleMutation: 3
  LatticeMutation: 4
  random: 11
  RotateMutation: 4
  RattleMutation: 5
  PermMutation: 7
  SlipMutation: 8
  CutAndSplicePairing: 8
construct goodPop
construct keepPop
best ind:
Al8Mg4O16 enthalpy: -23.395, fit: {'enthalpy': 23.395}
============ Generation 28 =============
change volRatio from 1.6250611980810856 to 1.6233925049013203
OP infomation: 
+---------------------+--------------+---------------+------------+
|       Operator      | Probability  | SelectedTimes | SuccessNum |
+---------------------+--------------+---------------+------------+
| CutAndSplicePairing |    14.29%    |       7       |     7      |
|     SlipMutation    |    14.29%    |       6       |     6      |
|   LatticeMutation   |    14.29%    |       7       |     7      |
|    RippleMutation   |    14.29%    |       7       |     7      |
|    RattleMutation   |    14.29%    |       2       |     2      |
|     PermMutation    |    14.29%    |       5       |     5      |
|    RotateMutation   |    14.29%    |       6       |     6      |
+---------------------+--------------+---------------+------------+
Reading Seeds ...
Generate new initial population with 50 individuals:
  RippleMutation: 7
  LatticeMutation: 7
  random: 10
  RotateMutation: 6
  RattleMutation: 2
  PermMutation: 5
  SlipMutation: 6
  CutAndSplicePairing: 7
construct goodPop
construct keepPop
best ind:
Al8Mg4O16 enthalpy: -23.395, fit: {'enthalpy': 23.395}
============ Generation 29 =============
change volRatio from 1.6233925049013203 to 1.6230321459104697
OP infomation: 
+---------------------+--------------+---------------+------------+
|       Operator      | Probability  | SelectedTimes | SuccessNum |
+---------------------+--------------+---------------+------------+
| CutAndSplicePairing |    14.29%    |       9       |     9      |
|     SlipMutation    |    14.29%    |       7       |     7      |
|   LatticeMutation   |    14.29%    |       4       |     4      |
|    RippleMutation   |    14.29%    |       5       |     5      |
|    RattleMutation   |    14.29%    |       9       |     9      |
|     PermMutation    |    14.29%    |       2       |     2      |
|    RotateMutation   |    14.29%    |       4       |     4      |
+---------------------+--------------+---------------+------------+
Reading Seeds ...
Generate new initial population with 50 individuals:
  RippleMutation: 5
  LatticeMutation: 3
  random: 13
  RotateMutation: 4
  RattleMutation: 9
  PermMutation: 2
  SlipMutation: 6
  CutAndSplicePairing: 8
construct goodPop
construct keepPop
best ind:
Al8Mg4O16 enthalpy: -23.395, fit: {'enthalpy': 23.395}
============ Generation 30 =============
change volRatio from 1.6230321459104697 to 1.623906244089803
OP infomation: 
+---------------------+--------------+---------------+------------+
|       Operator      | Probability  | SelectedTimes | SuccessNum |
+---------------------+--------------+---------------+------------+
| CutAndSplicePairing |    14.29%    |       6       |     6      |
|     SlipMutation    |    14.29%    |       3       |     3      |
|   LatticeMutation   |    14.29%    |       5       |     5      |
|    RippleMutation   |    14.29%    |       5       |     5      |
|    RattleMutation   |    14.29%    |       8       |     8      |
|     PermMutation    |    14.29%    |       8       |     8      |
|    RotateMutation   |    14.29%    |       5       |     5      |
+---------------------+--------------+---------------+------------+
Reading Seeds ...
Generate new initial population with 50 individuals:
  RippleMutation: 5
  LatticeMutation: 5
  random: 11
  RotateMutation: 5
  RattleMutation: 7
  PermMutation: 8
  SlipMutation: 3
  CutAndSplicePairing: 6
construct goodPop
construct keepPop
best ind:
Al8Mg4O16 enthalpy: -23.395, fit: {'enthalpy': 23.395}
============ Generation 31 =============
change volRatio from 1.623906244089803 to 1.6210761108277363
OP infomation: 
+---------------------+--------------+---------------+------------+
|       Operator      | Probability  | SelectedTimes | SuccessNum |
+---------------------+--------------+---------------+------------+
| CutAndSplicePairing |    14.29%    |       5       |     5      |
|     SlipMutation    |    14.29%    |       9       |     9      |
|   LatticeMutation   |    14.29%    |       4       |     4      |
|    RippleMutation   |    14.29%    |       9       |     9      |
|    RattleMutation   |    14.29%    |       4       |     4      |
|     PermMutation    |    14.29%    |       8       |     8      |
|    RotateMutation   |    14.29%    |       1       |     1      |
+---------------------+--------------+---------------+------------+
Reading Seeds ...
Generate new initial population with 50 individuals:
  RippleMutation: 8
  LatticeMutation: 4
  random: 16
  RotateMutation: 1
  RattleMutation: 4
  PermMutation: 5
  SlipMutation: 7
  CutAndSplicePairing: 5
construct goodPop
construct keepPop
best ind:
Al8Mg4O16 enthalpy: -23.395, fit: {'enthalpy': 23.395}
============ Generation 32 =============
change volRatio from 1.6210761108277363 to 1.6218977435185244
OP infomation: 
+---------------------+--------------+---------------+------------+
|       Operator      | Probability  | SelectedTimes | SuccessNum |
+---------------------+--------------+---------------+------------+
| CutAndSplicePairing |    14.29%    |       3       |     3      |
|     SlipMutation    |    14.29%    |       4       |     4      |
|   LatticeMutation   |    14.29%    |       9       |     9      |
|    RippleMutation   |    14.29%    |       5       |     5      |
|    RattleMutation   |    14.29%    |       6       |     6      |
|     PermMutation    |    14.29%    |       6       |     6      |
|    RotateMutation   |    14.29%    |       7       |     7      |
+---------------------+--------------+---------------+------------+
Reading Seeds ...
Generate new initial population with 50 individuals:
  RippleMutation: 5
  LatticeMutation: 8
  random: 14
  RotateMutation: 6
  RattleMutation: 6
  PermMutation: 5
  SlipMutation: 3
  CutAndSplicePairing: 3
construct goodPop
construct keepPop
best ind:
Al8Mg4O16 enthalpy: -23.395, fit: {'enthalpy': 23.395}
============ Generation 33 =============
change volRatio from 1.6218977435185244 to 1.6402654262753122
OP infomation: 
+---------------------+--------------+---------------+------------+
|       Operator      | Probability  | SelectedTimes | SuccessNum |
+---------------------+--------------+---------------+------------+
| CutAndSplicePairing |    14.29%    |       3       |     3      |
|     SlipMutation    |    14.29%    |       7       |     7      |
|   LatticeMutation   |    14.29%    |       9       |     9      |
|    RippleMutation   |    14.29%    |       8       |     8      |
|    RattleMutation   |    14.29%    |       5       |     5      |
|     PermMutation    |    14.29%    |       5       |     5      |
|    RotateMutation   |    14.29%    |       3       |     3      |
+---------------------+--------------+---------------+------------+
Reading Seeds ...
Generate new initial population with 50 individuals:
  RippleMutation: 8
  LatticeMutation: 9
  random: 11
  RotateMutation: 2
  RattleMutation: 5
  PermMutation: 5
  SlipMutation: 7
  CutAndSplicePairing: 3
construct goodPop
construct keepPop
best ind:
Al8Mg4O16 enthalpy: -23.395, fit: {'enthalpy': 23.395}
============ Generation 34 =============
change volRatio from 1.6402654262753122 to 1.6289564166759116
OP infomation: 
+---------------------+--------------+---------------+------------+
|       Operator      | Probability  | SelectedTimes | SuccessNum |
+---------------------+--------------+---------------+------------+
| CutAndSplicePairing |    14.29%    |       2       |     2      |
|     SlipMutation    |    14.29%    |       3       |     3      |
|   LatticeMutation   |    14.29%    |       11      |     11     |
|    RippleMutation   |    14.29%    |       6       |     6      |
|    RattleMutation   |    14.29%    |       6       |     6      |
|     PermMutation    |    14.29%    |       8       |     8      |
|    RotateMutation   |    14.29%    |       4       |     4      |
+---------------------+--------------+---------------+------------+
Reading Seeds ...
Generate new initial population with 50 individuals:
  RippleMutation: 6
  LatticeMutation: 11
  random: 10
  RotateMutation: 4
  RattleMutation: 6
  PermMutation: 8
  SlipMutation: 3
  CutAndSplicePairing: 2
construct goodPop
construct keepPop
best ind:
Al8Mg4O16 enthalpy: -23.395, fit: {'enthalpy': 23.395}
============ Generation 35 =============
change volRatio from 1.6289564166759116 to 1.6230774404967532
OP infomation: 
+---------------------+--------------+---------------+------------+
|       Operator      | Probability  | SelectedTimes | SuccessNum |
+---------------------+--------------+---------------+------------+
| CutAndSplicePairing |    14.29%    |       6       |     6      |
|     SlipMutation    |    14.29%    |       6       |     6      |
|   LatticeMutation   |    14.29%    |       6       |     6      |
|    RippleMutation   |    14.29%    |       5       |     5      |
|    RattleMutation   |    14.29%    |       8       |     8      |
|     PermMutation    |    14.29%    |       4       |     4      |
|    RotateMutation   |    14.29%    |       5       |     5      |
+---------------------+--------------+---------------+------------+
Reading Seeds ...
Generate new initial population with 50 individuals:
  RippleMutation: 5
  LatticeMutation: 6
  random: 10
  RotateMutation: 5
  RattleMutation: 8
  PermMutation: 4
  SlipMutation: 6
  CutAndSplicePairing: 6
construct goodPop
construct keepPop
best ind:
Al8Mg4O16 enthalpy: -23.395, fit: {'enthalpy': 23.395}
============ Generation 36 =============
change volRatio from 1.6230774404967532 to 1.6224338146700044
OP infomation: 
+---------------------+--------------+---------------+------------+
|       Operator      | Probability  | SelectedTimes | SuccessNum |
+---------------------+--------------+---------------+------------+
| CutAndSplicePairing |    14.29%    |       4       |     4      |
|     SlipMutation    |    14.29%    |       5       |     5      |
|   LatticeMutation   |    14.29%    |       7       |     7      |
|    RippleMutation   |    14.29%    |       6       |     6      |
|    RattleMutation   |    14.29%    |       5       |     5      |
|     PermMutation    |    14.29%    |       5       |     5      |
|    RotateMutation   |    14.29%    |       8       |     8      |
+---------------------+--------------+---------------+------------+
Reading Seeds ...
Generate new initial population with 50 individuals:
  RippleMutation: 6
  LatticeMutation: 7
  random: 10
  RotateMutation: 8
  RattleMutation: 5
  PermMutation: 5
  SlipMutation: 5
  CutAndSplicePairing: 4
construct goodPop
construct keepPop
best ind:
Al8Mg4O16 enthalpy: -23.395, fit: {'enthalpy': 23.395}
============ Generation 37 =============
change volRatio from 1.6224338146700044 to 1.6224241263980175
OP infomation: 
+---------------------+--------------+---------------+------------+
|       Operator      | Probability  | SelectedTimes | SuccessNum |
+---------------------+--------------+---------------+------------+
| CutAndSplicePairing |    14.29%    |       10      |     10     |
|     SlipMutation    |    14.29%    |       3       |     3      |
|   LatticeMutation   |    14.29%    |       3       |     3      |
|    RippleMutation   |    14.29%    |       10      |     10     |
|    RattleMutation   |    14.29%    |       5       |     5      |
|     PermMutation    |    14.29%    |       4       |     4      |
|    RotateMutation   |    14.29%    |       5       |     5      |
+---------------------+--------------+---------------+------------+
Reading Seeds ...
Generate new initial population with 49 individuals:
  RippleMutation: 10
  LatticeMutation: 3
  random: 9
  RotateMutation: 5
  RattleMutation: 5
  PermMutation: 4
  SlipMutation: 3
  CutAndSplicePairing: 10
construct goodPop
construct keepPop
best ind:
Al8Mg4O16 enthalpy: -23.395, fit: {'enthalpy': 23.395}
============ Generation 38 =============
change volRatio from 1.6224241263980175 to 1.6241576186779803
OP infomation: 
+---------------------+--------------+---------------+------------+
|       Operator      | Probability  | SelectedTimes | SuccessNum |
+---------------------+--------------+---------------+------------+
| CutAndSplicePairing |    14.29%    |       6       |     6      |
|     SlipMutation    |    14.29%    |       3       |     3      |
|   LatticeMutation   |    14.29%    |       8       |     8      |
|    RippleMutation   |    14.29%    |       5       |     5      |
|    RattleMutation   |    14.29%    |       5       |     5      |
|     PermMutation    |    14.29%    |       5       |     5      |
|    RotateMutation   |    14.29%    |       8       |     8      |
+---------------------+--------------+---------------+------------+
Reading Seeds ...
Generate new initial population with 50 individuals:
  RippleMutation: 5
  LatticeMutation: 8
  random: 12
  RotateMutation: 8
  RattleMutation: 5
  PermMutation: 4
  SlipMutation: 3
  CutAndSplicePairing: 5
construct goodPop
construct keepPop
best ind:
Al8Mg4O16 enthalpy: -23.395, fit: {'enthalpy': 23.395}
============ Generation 39 =============
change volRatio from 1.6241576186779803 to 1.6233545181189546
OP infomation: 
+---------------------+--------------+---------------+------------+
|       Operator      | Probability  | SelectedTimes | SuccessNum |
+---------------------+--------------+---------------+------------+
| CutAndSplicePairing |    14.29%    |       4       |     4      |
|     SlipMutation    |    14.29%    |       5       |     5      |
|   LatticeMutation   |    14.29%    |       10      |     10     |
|    RippleMutation   |    14.29%    |       10      |     10     |
|    RattleMutation   |    14.29%    |       3       |     3      |
|     PermMutation    |    14.29%    |       6       |     6      |
|    RotateMutation   |    14.29%    |       2       |     2      |
+---------------------+--------------+---------------+------------+
Reading Seeds ...
Generate new initial population with 50 individuals:
  RippleMutation: 10
  LatticeMutation: 9
  random: 13
  RotateMutation: 2
  RattleMutation: 2
  PermMutation: 6
  SlipMutation: 4
  CutAndSplicePairing: 4
construct goodPop
construct keepPop
best ind:
Al8Mg4O16 enthalpy: -23.395, fit: {'enthalpy': 23.395}
============ Generation 40 =============
change volRatio from 1.6233545181189546 to 1.6235821623111364
OP infomation: 
+---------------------+--------------+---------------+------------+
|       Operator      | Probability  | SelectedTimes | SuccessNum |
+---------------------+--------------+---------------+------------+
| CutAndSplicePairing |    14.29%    |       4       |     4      |
|     SlipMutation    |    14.29%    |       7       |     7      |
|   LatticeMutation   |    14.29%    |       8       |     8      |
|    RippleMutation   |    14.29%    |       1       |     1      |
|    RattleMutation   |    14.29%    |       9       |     9      |
|     PermMutation    |    14.29%    |       4       |     4      |
|    RotateMutation   |    14.29%    |       7       |     7      |
+---------------------+--------------+---------------+------------+
Reading Seeds ...
Generate new initial population with 50 individuals:
  RippleMutation: 1
  LatticeMutation: 7
  random: 13
  RotateMutation: 7
  RattleMutation: 8
  PermMutation: 3
  SlipMutation: 7
  CutAndSplicePairing: 4
construct goodPop
construct keepPop
best ind:
Al8Mg4O16 enthalpy: -23.395, fit: {'enthalpy': 23.395}
============ Generation 41 =============
change volRatio from 1.6235821623111364 to 1.6226258197690917
OP infomation: 
+---------------------+--------------+---------------+------------+
|       Operator      | Probability  | SelectedTimes | SuccessNum |
+---------------------+--------------+---------------+------------+
| CutAndSplicePairing |    14.29%    |       7       |     7      |
|     SlipMutation    |    14.29%    |       7       |     7      |
|   LatticeMutation   |    14.29%    |       4       |     4      |
|    RippleMutation   |    14.29%    |       8       |     8      |
|    RattleMutation   |    14.29%    |       3       |     3      |
|     PermMutation    |    14.29%    |       2       |     2      |
|    RotateMutation   |    14.29%    |       9       |     9      |
+---------------------+--------------+---------------+------------+
Reading Seeds ...
Generate new initial population with 50 individuals:
  RippleMutation: 7
  LatticeMutation: 4
  random: 14
  RotateMutation: 8
  RattleMutation: 3
  PermMutation: 2
  SlipMutation: 6
  CutAndSplicePairing: 6
construct goodPop
construct keepPop
best ind:
Al8Mg4O16 enthalpy: -23.395, fit: {'enthalpy': 23.395}
============ Generation 42 =============
change volRatio from 1.6226258197690917 to 1.6268871693178681
OP infomation: 
+---------------------+--------------+---------------+------------+
|       Operator      | Probability  | SelectedTimes | SuccessNum |
+---------------------+--------------+---------------+------------+
| CutAndSplicePairing |    14.29%    |       10      |     10     |
|     SlipMutation    |    14.29%    |       4       |     4      |
|   LatticeMutation   |    14.29%    |       5       |     5      |
|    RippleMutation   |    14.29%    |       5       |     5      |
|    RattleMutation   |    14.29%    |       8       |     8      |
|     PermMutation    |    14.29%    |       5       |     5      |
|    RotateMutation   |    14.29%    |       3       |     3      |
+---------------------+--------------+---------------+------------+
Reading Seeds ...
Generate new initial population with 49 individuals:
  RippleMutation: 5
  LatticeMutation: 5
  random: 10
  RotateMutation: 3
  RattleMutation: 8
  PermMutation: 5
  SlipMutation: 4
  CutAndSplicePairing: 9
construct goodPop
construct keepPop
best ind:
Al8Mg4O16 enthalpy: -23.395, fit: {'enthalpy': 23.395}
============ Generation 43 =============
change volRatio from 1.6268871693178681 to 1.6243049869145634
OP infomation: 
+---------------------+--------------+---------------+------------+
|       Operator      | Probability  | SelectedTimes | SuccessNum |
+---------------------+--------------+---------------+------------+
| CutAndSplicePairing |    14.29%    |       2       |     2      |
|     SlipMutation    |    14.29%    |       8       |     8      |
|   LatticeMutation   |    14.29%    |       6       |     6      |
|    RippleMutation   |    14.29%    |       7       |     7      |
|    RattleMutation   |    14.29%    |       7       |     7      |
|     PermMutation    |    14.29%    |       4       |     4      |
|    RotateMutation   |    14.29%    |       6       |     6      |
+---------------------+--------------+---------------+------------+
Reading Seeds ...
Generate new initial population with 50 individuals:
  RippleMutation: 7
  LatticeMutation: 6
  random: 11
  RotateMutation: 6
  RattleMutation: 7
  PermMutation: 4
  SlipMutation: 7
  CutAndSplicePairing: 2
construct goodPop
construct keepPop
best ind:
Al8Mg4O16 enthalpy: -23.395, fit: {'enthalpy': 23.395}
============ Generation 44 =============
change volRatio from 1.6243049869145634 to 1.619870820839885
OP infomation: 
+---------------------+--------------+---------------+------------+
|       Operator      | Probability  | SelectedTimes | SuccessNum |
+---------------------+--------------+---------------+------------+
| CutAndSplicePairing |    14.29%    |       4       |     4      |
|     SlipMutation    |    14.29%    |       6       |     6      |
|   LatticeMutation   |    14.29%    |       4       |     4      |
|    RippleMutation   |    14.29%    |       6       |     6      |
|    RattleMutation   |    14.29%    |       5       |     5      |
|     PermMutation    |    14.29%    |       11      |     11     |
|    RotateMutation   |    14.29%    |       4       |     4      |
+---------------------+--------------+---------------+------------+
Reading Seeds ...
Generate new initial population with 50 individuals:
  RippleMutation: 6
  LatticeMutation: 4
  random: 10
  RotateMutation: 4
  RattleMutation: 5
  PermMutation: 11
  SlipMutation: 6
  CutAndSplicePairing: 4
construct goodPop
construct keepPop
best ind:
Al8Mg4O16 enthalpy: -23.395, fit: {'enthalpy': 23.395}
============ Generation 45 =============
change volRatio from 1.619870820839885 to 1.6204012733236188
OP infomation: 
+---------------------+--------------+---------------+------------+
|       Operator      | Probability  | SelectedTimes | SuccessNum |
+---------------------+--------------+---------------+------------+
| CutAndSplicePairing |    14.29%    |       8       |     8      |
|     SlipMutation    |    14.29%    |       3       |     3      |
|   LatticeMutation   |    14.29%    |       7       |     7      |
|    RippleMutation   |    14.29%    |       4       |     4      |
|    RattleMutation   |    14.29%    |       4       |     4      |
|     PermMutation    |    14.29%    |       5       |     5      |
|    RotateMutation   |    14.29%    |       9       |     9      |
+---------------------+--------------+---------------+------------+
Reading Seeds ...
Generate new initial population with 49 individuals:
  RippleMutation: 4
  LatticeMutation: 7
  random: 9
  RotateMutation: 9
  RattleMutation: 4
  PermMutation: 5
  SlipMutation: 3
  CutAndSplicePairing: 8
construct goodPop
construct keepPop
best ind:
Al8Mg4O16 enthalpy: -23.395, fit: {'enthalpy': 23.395}
============ Generation 46 =============
change volRatio from 1.6204012733236188 to 1.6231739077024714
OP infomation: 
+---------------------+--------------+---------------+------------+
|       Operator      | Probability  | SelectedTimes | SuccessNum |
+---------------------+--------------+---------------+------------+
| CutAndSplicePairing |    14.29%    |       8       |     8      |
|     SlipMutation    |    14.29%    |       7       |     7      |
|   LatticeMutation   |    14.29%    |       6       |     6      |
|    RippleMutation   |    14.29%    |       5       |     5      |
|    RattleMutation   |    14.29%    |       5       |     5      |
|     PermMutation    |    14.29%    |       5       |     5      |
|    RotateMutation   |    14.29%    |       4       |     4      |
+---------------------+--------------+---------------+------------+
Reading Seeds ...
Generate new initial population with 50 individuals:
  RippleMutation: 5
  LatticeMutation: 5
  random: 13
  RotateMutation: 3
  RattleMutation: 5
  PermMutation: 4
  SlipMutation: 7
  CutAndSplicePairing: 8
construct goodPop
construct keepPop
best ind:
Al8Mg4O16 enthalpy: -23.395, fit: {'enthalpy': 23.395}
============ Generation 47 =============
change volRatio from 1.6231739077024714 to 1.624381676215049
OP infomation: 
+---------------------+--------------+---------------+------------+
|       Operator      | Probability  | SelectedTimes | SuccessNum |
+---------------------+--------------+---------------+------------+
| CutAndSplicePairing |    14.29%    |       9       |     9      |
|     SlipMutation    |    14.29%    |       6       |     6      |
|   LatticeMutation   |    14.29%    |       5       |     5      |
|    RippleMutation   |    14.29%    |       7       |     7      |
|    RattleMutation   |    14.29%    |       4       |     4      |
|     PermMutation    |    14.29%    |       4       |     4      |
|    RotateMutation   |    14.29%    |       5       |     5      |
+---------------------+--------------+---------------+------------+
Reading Seeds ...
Generate new initial population with 50 individuals:
  RippleMutation: 7
  LatticeMutation: 5
  random: 10
  RotateMutation: 5
  RattleMutation: 4
  PermMutation: 4
  SlipMutation: 6
  CutAndSplicePairing: 9
construct goodPop
construct keepPop
best ind:
Al8Mg4O16 enthalpy: -23.395, fit: {'enthalpy': 23.395}
============ Generation 48 =============
change volRatio from 1.624381676215049 to 1.6242389198696054
OP infomation: 
+---------------------+--------------+---------------+------------+
|       Operator      | Probability  | SelectedTimes | SuccessNum |
+---------------------+--------------+---------------+------------+
| CutAndSplicePairing |    14.29%    |       3       |     3      |
|     SlipMutation    |    14.29%    |       4       |     4      |
|   LatticeMutation   |    14.29%    |       7       |     7      |
|    RippleMutation   |    14.29%    |       9       |     9      |
|    RattleMutation   |    14.29%    |       6       |     6      |
|     PermMutation    |    14.29%    |       7       |     7      |
|    RotateMutation   |    14.29%    |       4       |     4      |
+---------------------+--------------+---------------+------------+
Reading Seeds ...
Generate new initial population with 49 individuals:
  RippleMutation: 9
  LatticeMutation: 7
  random: 9
  RotateMutation: 4
  RattleMutation: 6
  PermMutation: 7
  SlipMutation: 4
  CutAndSplicePairing: 3
construct goodPop
construct keepPop
best ind:
Al8Mg4O16 enthalpy: -23.395, fit: {'enthalpy': 23.395}
============ Generation 49 =============
change volRatio from 1.6242389198696054 to 1.6171663208262252
OP infomation: 
+---------------------+--------------+---------------+------------+
|       Operator      | Probability  | SelectedTimes | SuccessNum |
+---------------------+--------------+---------------+------------+
| CutAndSplicePairing |    14.29%    |       4       |     4      |
|     SlipMutation    |    14.29%    |       8       |     8      |
|   LatticeMutation   |    14.29%    |       5       |     5      |
|    RippleMutation   |    14.29%    |       3       |     3      |
|    RattleMutation   |    14.29%    |       7       |     7      |
|     PermMutation    |    14.29%    |       7       |     7      |
|    RotateMutation   |    14.29%    |       6       |     6      |
+---------------------+--------------+---------------+------------+
Reading Seeds ...
Generate new initial population with 50 individuals:
  RippleMutation: 3
  LatticeMutation: 5
  random: 10
  RotateMutation: 6
  RattleMutation: 7
  PermMutation: 7
  SlipMutation: 8
  CutAndSplicePairing: 4
construct goodPop
construct keepPop
best ind:
Al8Mg4O16 enthalpy: -23.395, fit: {'enthalpy': 23.395}
============ Generation 50 =============
change volRatio from 1.6171663208262252 to 1.630865814086301
OP infomation: 
+---------------------+--------------+---------------+------------+
|       Operator      | Probability  | SelectedTimes | SuccessNum |
+---------------------+--------------+---------------+------------+
| CutAndSplicePairing |    14.29%    |       7       |     7      |
|     SlipMutation    |    14.29%    |       3       |     3      |
|   LatticeMutation   |    14.29%    |       6       |     6      |
|    RippleMutation   |    14.29%    |       7       |     7      |
|    RattleMutation   |    14.29%    |       4       |     4      |
|     PermMutation    |    14.29%    |       4       |     4      |
|    RotateMutation   |    14.29%    |       9       |     9      |
+---------------------+--------------+---------------+------------+
Reading Seeds ...
Generate new initial population with 50 individuals:
  RippleMutation: 7
  LatticeMutation: 6
  random: 11
  RotateMutation: 8
  RattleMutation: 4
  PermMutation: 4
  SlipMutation: 3
  CutAndSplicePairing: 7
construct goodPop
construct keepPop
best ind:
Al8Mg4O16 enthalpy: -23.395, fit: {'enthalpy': 23.395}
============ Generation 51 =============
change volRatio from 1.630865814086301 to 1.6267503189129173
OP infomation: 
+---------------------+--------------+---------------+------------+
|       Operator      | Probability  | SelectedTimes | SuccessNum |
+---------------------+--------------+---------------+------------+
| CutAndSplicePairing |    14.29%    |       4       |     4      |
|     SlipMutation    |    14.29%    |       7       |     7      |
|   LatticeMutation   |    14.29%    |       5       |     5      |
|    RippleMutation   |    14.29%    |       6       |     6      |
|    RattleMutation   |    14.29%    |       7       |     7      |
|     PermMutation    |    14.29%    |       6       |     6      |
|    RotateMutation   |    14.29%    |       5       |     5      |
+---------------------+--------------+---------------+------------+
Reading Seeds ...
Generate new initial population with 50 individuals:
  RippleMutation: 6
  LatticeMutation: 5
  random: 10
  RotateMutation: 5
  RattleMutation: 7
  PermMutation: 6
  SlipMutation: 7
  CutAndSplicePairing: 4
construct goodPop
construct keepPop
best ind:
Al8Mg4O16 enthalpy: -23.395, fit: {'enthalpy': 23.395}
============ Generation 52 =============
change volRatio from 1.6267503189129173 to 1.62234266689049
OP infomation: 
+---------------------+--------------+---------------+------------+
|       Operator      | Probability  | SelectedTimes | SuccessNum |
+---------------------+--------------+---------------+------------+
| CutAndSplicePairing |    14.29%    |       3       |     3      |
|     SlipMutation    |    14.29%    |       5       |     5      |
|   LatticeMutation   |    14.29%    |       6       |     6      |
|    RippleMutation   |    14.29%    |       6       |     6      |
|    RattleMutation   |    14.29%    |       8       |     8      |
|     PermMutation    |    14.29%    |       6       |     6      |
|    RotateMutation   |    14.29%    |       6       |     6      |
+---------------------+--------------+---------------+------------+
Reading Seeds ...
Generate new initial population with 50 individuals:
  RippleMutation: 6
  LatticeMutation: 6
  random: 10
  RotateMutation: 6
  RattleMutation: 8
  PermMutation: 6
  SlipMutation: 5
  CutAndSplicePairing: 3
construct goodPop
construct keepPop
best ind:
Al8Mg4O16 enthalpy: -23.395, fit: {'enthalpy': 23.395}
============ Generation 53 =============
change volRatio from 1.62234266689049 to 1.6195470324663328
OP infomation: 
+---------------------+--------------+---------------+------------+
|       Operator      | Probability  | SelectedTimes | SuccessNum |
+---------------------+--------------+---------------+------------+
| CutAndSplicePairing |    14.29%    |       2       |     2      |
|     SlipMutation    |    14.29%    |       6       |     6      |
|   LatticeMutation   |    14.29%    |       5       |     5      |
|    RippleMutation   |    14.29%    |       6       |     6      |
|    RattleMutation   |    14.29%    |       11      |     11     |
|     PermMutation    |    14.29%    |       6       |     6      |
|    RotateMutation   |    14.29%    |       4       |     4      |
+---------------------+--------------+---------------+------------+
Reading Seeds ...
Generate new initial population with 50 individuals:
  RippleMutation: 6
  LatticeMutation: 5
  random: 10
  RotateMutation: 4
  RattleMutation: 11
  PermMutation: 6
  SlipMutation: 6
  CutAndSplicePairing: 2
construct goodPop
construct keepPop
best ind:
Al8Mg4O16 enthalpy: -23.395, fit: {'enthalpy': 23.395}
============ Generation 54 =============
change volRatio from 1.6195470324663328 to 1.617092335250121
OP infomation: 
+---------------------+--------------+---------------+------------+
|       Operator      | Probability  | SelectedTimes | SuccessNum |
+---------------------+--------------+---------------+------------+
| CutAndSplicePairing |    14.29%    |       5       |     5      |
|     SlipMutation    |    14.29%    |       7       |     7      |
|   LatticeMutation   |    14.29%    |       4       |     4      |
|    RippleMutation   |    14.29%    |       7       |     7      |
|    RattleMutation   |    14.29%    |       5       |     5      |
|     PermMutation    |    14.29%    |       5       |     5      |
|    RotateMutation   |    14.29%    |       7       |     7      |
+---------------------+--------------+---------------+------------+
Reading Seeds ...
Generate new initial population with 50 individuals:
  RippleMutation: 7
  LatticeMutation: 4
  random: 10
  RotateMutation: 7
  RattleMutation: 5
  PermMutation: 5
  SlipMutation: 7
  CutAndSplicePairing: 5
construct goodPop
construct keepPop
best ind:
Al8Mg4O16 enthalpy: -23.395, fit: {'enthalpy': 23.395}
============ Generation 55 =============
change volRatio from 1.617092335250121 to 1.6147214514454342
OP infomation: 
+---------------------+--------------+---------------+------------+
|       Operator      | Probability  | SelectedTimes | SuccessNum |
+---------------------+--------------+---------------+------------+
| CutAndSplicePairing |    14.29%    |       6       |     6      |
|     SlipMutation    |    14.29%    |       2       |     2      |
|   LatticeMutation   |    14.29%    |       6       |     6      |
|    RippleMutation   |    14.29%    |       6       |     6      |
|    RattleMutation   |    14.29%    |       9       |     9      |
|     PermMutation    |    14.29%    |       6       |     6      |
|    RotateMutation   |    14.29%    |       5       |     5      |
+---------------------+--------------+---------------+------------+
Reading Seeds ...
Generate new initial population with 50 individuals:
  RippleMutation: 6
  LatticeMutation: 6
  random: 10
  RotateMutation: 5
  RattleMutation: 9
  PermMutation: 6
  SlipMutation: 2
  CutAndSplicePairing: 6
construct goodPop
construct keepPop
best ind:
Al8Mg4O16 enthalpy: -23.395, fit: {'enthalpy': 23.395}
============ Generation 56 =============
change volRatio from 1.6147214514454342 to 1.6334978463058736
OP infomation: 
+---------------------+--------------+---------------+------------+
|       Operator      | Probability  | SelectedTimes | SuccessNum |
+---------------------+--------------+---------------+------------+
| CutAndSplicePairing |    14.29%    |       3       |     3      |
|     SlipMutation    |    14.29%    |       4       |     4      |
|   LatticeMutation   |    14.29%    |       6       |     6      |
|    RippleMutation   |    14.29%    |       8       |     8      |
|    RattleMutation   |    14.29%    |       5       |     5      |
|     PermMutation    |    14.29%    |       5       |     5      |
|    RotateMutation   |    14.29%    |       9       |     9      |
+---------------------+--------------+---------------+------------+
Reading Seeds ...
Generate new initial population with 50 individuals:
  RippleMutation: 8
  LatticeMutation: 6
  random: 11
  RotateMutation: 8
  RattleMutation: 5
  PermMutation: 5
  SlipMutation: 4
  CutAndSplicePairing: 3
construct goodPop
construct keepPop
best ind:
Al8Mg4O16 enthalpy: -23.395, fit: {'enthalpy': 23.395}
============ Generation 57 =============
change volRatio from 1.6334978463058736 to 1.6277056550640598
OP infomation: 
+---------------------+--------------+---------------+------------+
|       Operator      | Probability  | SelectedTimes | SuccessNum |
+---------------------+--------------+---------------+------------+
| CutAndSplicePairing |    14.29%    |       4       |     4      |
|     SlipMutation    |    14.29%    |       3       |     3      |
|   LatticeMutation   |    14.29%    |       8       |     8      |
|    RippleMutation   |    14.29%    |       7       |     7      |
|    RattleMutation   |    14.29%    |       2       |     2      |
|     PermMutation    |    14.29%    |       7       |     7      |
|    RotateMutation   |    14.29%    |       9       |     9      |
+---------------------+--------------+---------------+------------+
Reading Seeds ...
Generate new initial population with 50 individuals:
  RippleMutation: 6
  LatticeMutation: 8
  random: 11
  RotateMutation: 9
  RattleMutation: 2
  PermMutation: 7
  SlipMutation: 3
  CutAndSplicePairing: 4
construct goodPop
construct keepPop
best ind:
Al8Mg4O16 enthalpy: -23.395, fit: {'enthalpy': 23.395}
============ Generation 58 =============
change volRatio from 1.6277056550640598 to 1.6231068139373757
OP infomation: 
+---------------------+--------------+---------------+------------+
|       Operator      | Probability  | SelectedTimes | SuccessNum |
+---------------------+--------------+---------------+------------+
| CutAndSplicePairing |    14.29%    |       8       |     8      |
|     SlipMutation    |    14.29%    |       5       |     5      |
|   LatticeMutation   |    14.29%    |       7       |     7      |
|    RippleMutation   |    14.29%    |       4       |     4      |
|    RattleMutation   |    14.29%    |       8       |     8      |
|     PermMutation    |    14.29%    |       4       |     4      |
|    RotateMutation   |    14.29%    |       4       |     4      |
+---------------------+--------------+---------------+------------+
Reading Seeds ...
Generate new initial population with 50 individuals:
  RippleMutation: 4
  LatticeMutation: 7
  random: 10
  RotateMutation: 4
  RattleMutation: 8
  PermMutation: 4
  SlipMutation: 5
  CutAndSplicePairing: 8
construct goodPop
construct keepPop
best ind:
Al8Mg4O16 enthalpy: -23.395, fit: {'enthalpy': 23.395}
============ Generation 59 =============
change volRatio from 1.6231068139373757 to 1.620311043178009
OP infomation: 
+---------------------+--------------+---------------+------------+
|       Operator      | Probability  | SelectedTimes | SuccessNum |
+---------------------+--------------+---------------+------------+
| CutAndSplicePairing |    14.29%    |       4       |     4      |
|     SlipMutation    |    14.29%    |       5       |     5      |
|   LatticeMutation   |    14.29%    |       7       |     7      |
|    RippleMutation   |    14.29%    |       4       |     4      |
|    RattleMutation   |    14.29%    |       5       |     5      |
|     PermMutation    |    14.29%    |       8       |     8      |
|    RotateMutation   |    14.29%    |       7       |     7      |
+---------------------+--------------+---------------+------------+
Reading Seeds ...
Generate new initial population with 50 individuals:
  RippleMutation: 4
  LatticeMutation: 7
  random: 14
  RotateMutation: 6
  RattleMutation: 3
  PermMutation: 7
  SlipMutation: 5
  CutAndSplicePairing: 4
construct goodPop
construct keepPop
best ind:
Al8Mg4O16 enthalpy: -23.395, fit: {'enthalpy': 23.395}
============ Generation 60 =============
change volRatio from 1.620311043178009 to 1.629320839286481
OP infomation: 
+---------------------+--------------+---------------+------------+
|       Operator      | Probability  | SelectedTimes | SuccessNum |
+---------------------+--------------+---------------+------------+
| CutAndSplicePairing |    14.29%    |       6       |     6      |
|     SlipMutation    |    14.29%    |       5       |     5      |
|   LatticeMutation   |    14.29%    |       3       |     3      |
|    RippleMutation   |    14.29%    |       7       |     7      |
|    RattleMutation   |    14.29%    |       8       |     8      |
|     PermMutation    |    14.29%    |       4       |     4      |
|    RotateMutation   |    14.29%    |       7       |     7      |
+---------------------+--------------+---------------+------------+
Reading Seeds ...
Generate new initial population with 50 individuals:
  RippleMutation: 7
  LatticeMutation: 3
  random: 11
  RotateMutation: 7
  RattleMutation: 8
  PermMutation: 3
  SlipMutation: 5
  CutAndSplicePairing: 6
construct goodPop
construct keepPop
best ind:
Al8Mg4O16 enthalpy: -23.395, fit: {'enthalpy': 23.395}
