 
            ,'  , `.     MAGUS                                           
        ,-+-,.' _ |      (v.1.0.5 RELEASE)                                    
      ,-+-. ;   , ||   =========================   ,--,  ============            
     ,--.'|'   |  ;|             ,----._,.       ,'_ /|   .--.--.    
    |   |  ,', |  ':  ,--.--.   /   /  ' /  .--. |  | :  /  /    '   
    |   | /  | |  || /       \ |   :     |,'_ /| :  . | |  :  /`./   
    '   | :  | :  |,.--.  .-. ||   | .\  .|  ' | |  . . |  :  ;_     
    ;   . |  ; |--'  \__\/: . ..   ; ';  ||  | ' |  | |  \  \    `.  
    |   : |  | ,     ," .--.; |'   .   . |:  | : ;  ; |   `----.   \ 
    |   : '  |/     /  /  ,.  | `---`-'| |'  :  `--'   \ /  /`--'  / 
    ;   | |`-'     ;  :   .'   \.'__/\_: |:  ,      .-./'--'.     /  
    |   ;/         |  ,     .-./|   :    : `--`----'      `--'---'   
    '---'           `--`---'     \   \  /                            
                    

============== Initialize ==============
calculator not given, auto guess by jobprefix
============= Generation 1 =============
Reading Seeds ...
Generate new initial population with 19 individuals:
  random: 19
DFT relax 19 structures with 2076 scf
construct goodPop
construct keepPop
best ind:
C4H16 enthalpy: -3.2865457551866974, fit: {'enthalpy': 3.2865457551866974}
============= Generation 2 =============
change volRatio from 5 to 7.129748264239647
OP infomation: 
+---------------------+--------------+---------------+------------+
|       Operator      | Probability  | SelectedTimes | SuccessNum |
+---------------------+--------------+---------------+------------+
| CutAndSplicePairing |    14.29%    |       1       |     1      |
|     SlipMutation    |    14.29%    |       2       |     2      |
|   LatticeMutation   |    14.29%    |       2       |     2      |
|    RippleMutation   |    14.29%    |       2       |     2      |
|    RattleMutation   |    14.29%    |       2       |     2      |
|     PermMutation    |    14.29%    |       0       |     0      |
|    RotateMutation   |    14.29%    |       3       |     3      |
+---------------------+--------------+---------------+------------+
Reading Seeds ...
Generate new initial population with 20 individuals:
  SlipMutation: 2
  random: 8
  RotateMutation: 3
  CutAndSplicePairing: 1
  RattleMutation: 2
  RippleMutation: 2
  LatticeMutation: 2
DFT relax 20 structures with 1966 scf
construct goodPop
construct keepPop
best ind:
C4H16 enthalpy: -3.2865804244830783, fit: {'enthalpy': 3.2865804244830783}
============= Generation 3 =============
change volRatio from 7.129748264239647 to 7.687707763924896
OP infomation: 
+---------------------+--------------+---------------+------------+
|       Operator      | Probability  | SelectedTimes | SuccessNum |
+---------------------+--------------+---------------+------------+
| CutAndSplicePairing |    14.29%    |       3       |     3      |
|     SlipMutation    |    14.29%    |       1       |     1      |
|   LatticeMutation   |    14.29%    |       3       |     3      |
|    RippleMutation   |    14.29%    |       1       |     1      |
|    RattleMutation   |    14.29%    |       2       |     2      |
|     PermMutation    |    14.29%    |       2       |     0      |
|    RotateMutation   |    14.29%    |       2       |     2      |
+---------------------+--------------+---------------+------------+
Reading Seeds ...
Generate new initial population with 20 individuals:
  SlipMutation: 1
  random: 8
  RotateMutation: 2
  CutAndSplicePairing: 3
  RattleMutation: 2
  RippleMutation: 1
  LatticeMutation: 3
DFT relax 19 structures with 1958 scf
construct goodPop
construct keepPop
best ind:
C4H16 enthalpy: -3.2865804244830783, fit: {'enthalpy': 3.2865804244830783}
============= Generation 4 =============
change volRatio from 7.687707763924896 to 7.891134277795805
OP infomation: 
+---------------------+--------------+---------------+------------+
|       Operator      | Probability  | SelectedTimes | SuccessNum |
+---------------------+--------------+---------------+------------+
| CutAndSplicePairing |    14.29%    |       1       |     1      |
|     SlipMutation    |    14.29%    |       1       |     1      |
|   LatticeMutation   |    14.29%    |       3       |     3      |
|    RippleMutation   |    14.29%    |       3       |     3      |
|    RattleMutation   |    14.29%    |       1       |     1      |
|     PermMutation    |    14.29%    |       2       |     0      |
|    RotateMutation   |    14.29%    |       3       |     3      |
+---------------------+--------------+---------------+------------+
Reading Seeds ...
Generate new initial population with 20 individuals:
  SlipMutation: 1
  random: 8
  RotateMutation: 3
  CutAndSplicePairing: 1
  RattleMutation: 1
  RippleMutation: 3
  LatticeMutation: 3
DFT relax 20 structures with 1896 scf
construct goodPop
construct keepPop
best ind:
C4H16 enthalpy: -3.286586705186687, fit: {'enthalpy': 3.286586705186687}
============= Generation 5 =============
change volRatio from 7.891134277795805 to 8.048013995317913
OP infomation: 
+---------------------+--------------+---------------+------------+
|       Operator      | Probability  | SelectedTimes | SuccessNum |
+---------------------+--------------+---------------+------------+
| CutAndSplicePairing |    14.29%    |       3       |     3      |
|     SlipMutation    |    14.29%    |       2       |     2      |
|   LatticeMutation   |    14.29%    |       3       |     3      |
|    RippleMutation   |    14.29%    |       1       |     1      |
|    RattleMutation   |    14.29%    |       3       |     3      |
|     PermMutation    |    14.29%    |       2       |     0      |
|    RotateMutation   |    14.29%    |       0       |     0      |
+---------------------+--------------+---------------+------------+
Reading Seeds ...
Generate new initial population with 20 individuals:
  SlipMutation: 2
  random: 8
  CutAndSplicePairing: 3
  RattleMutation: 3
  RippleMutation: 1
  LatticeMutation: 3
DFT relax 20 structures with 2126 scf
construct goodPop
construct keepPop
best ind:
C4H16 enthalpy: -3.2867396902599895, fit: {'enthalpy': 3.2867396902599895}
============= Generation 6 =============
change volRatio from 8.048013995317913 to 8.0104015835205
OP infomation: 
+---------------------+--------------+---------------+------------+
|       Operator      | Probability  | SelectedTimes | SuccessNum |
+---------------------+--------------+---------------+------------+
| CutAndSplicePairing |    14.29%    |       1       |     1      |
|     SlipMutation    |    14.29%    |       4       |     4      |
|   LatticeMutation   |    14.29%    |       2       |     2      |
|    RippleMutation   |    14.29%    |       3       |     3      |
|    RattleMutation   |    14.29%    |       1       |     1      |
|     PermMutation    |    14.29%    |       6       |     0      |
|    RotateMutation   |    14.29%    |       1       |     1      |
+---------------------+--------------+---------------+------------+
Reading Seeds ...
Generate new initial population with 20 individuals:
  SlipMutation: 4
  random: 8
  RotateMutation: 1
  CutAndSplicePairing: 1
  RattleMutation: 1
  RippleMutation: 3
  LatticeMutation: 2
DFT relax 20 structures with 1843 scf
construct goodPop
construct keepPop
best ind:
C4H16 enthalpy: -3.2867396902599895, fit: {'enthalpy': 3.2867396902599895}
============= Generation 7 =============
change volRatio from 8.0104015835205 to 7.946378847892468
OP infomation: 
+---------------------+--------------+---------------+------------+
|       Operator      | Probability  | SelectedTimes | SuccessNum |
+---------------------+--------------+---------------+------------+
| CutAndSplicePairing |    14.29%    |       1       |     1      |
|     SlipMutation    |    14.29%    |       3       |     3      |
|   LatticeMutation   |    14.29%    |       4       |     4      |
|    RippleMutation   |    14.29%    |       1       |     1      |
|    RattleMutation   |    14.29%    |       2       |     2      |
|     PermMutation    |    14.29%    |       2       |     0      |
|    RotateMutation   |    14.29%    |       1       |     1      |
+---------------------+--------------+---------------+------------+
Reading Seeds ...
Generate new initial population with 20 individuals:
  SlipMutation: 3
  random: 8
  RotateMutation: 1
  CutAndSplicePairing: 1
  RattleMutation: 2
  RippleMutation: 1
  LatticeMutation: 4
DFT relax 20 structures with 1381 scf
construct goodPop
construct keepPop
best ind:
C4H16 enthalpy: -3.2867396902599895, fit: {'enthalpy': 3.2867396902599895}
============= Generation 8 =============
change volRatio from 7.946378847892468 to 7.9219113737313975
OP infomation: 
+---------------------+--------------+---------------+------------+
|       Operator      | Probability  | SelectedTimes | SuccessNum |
+---------------------+--------------+---------------+------------+
| CutAndSplicePairing |    14.29%    |       2       |     2      |
|     SlipMutation    |    14.29%    |       3       |     3      |
|   LatticeMutation   |    14.29%    |       2       |     2      |
|    RippleMutation   |    14.29%    |       1       |     1      |
|    RattleMutation   |    14.29%    |       1       |     1      |
|     PermMutation    |    14.29%    |       1       |     0      |
|    RotateMutation   |    14.29%    |       3       |     3      |
+---------------------+--------------+---------------+------------+
Reading Seeds ...
Generate new initial population with 20 individuals:
  SlipMutation: 3
  random: 8
  RotateMutation: 3
  CutAndSplicePairing: 2
  RattleMutation: 1
  RippleMutation: 1
  LatticeMutation: 2
DFT relax 19 structures with 1886 scf
construct goodPop
construct keepPop
best ind:
C4H16 enthalpy: -3.2867515365989872, fit: {'enthalpy': 3.2867515365989872}
============= Generation 9 =============
change volRatio from 7.9219113737313975 to 7.987659955897129
OP infomation: 
+---------------------+--------------+---------------+------------+
|       Operator      | Probability  | SelectedTimes | SuccessNum |
+---------------------+--------------+---------------+------------+
| CutAndSplicePairing |    14.29%    |       4       |     4      |
|     SlipMutation    |    14.29%    |       0       |     0      |
|   LatticeMutation   |    14.29%    |       1       |     1      |
|    RippleMutation   |    14.29%    |       3       |     3      |
|    RattleMutation   |    14.29%    |       1       |     1      |
|     PermMutation    |    14.29%    |       4       |     0      |
|    RotateMutation   |    14.29%    |       3       |     3      |
+---------------------+--------------+---------------+------------+
Reading Seeds ...
Generate new initial population with 20 individuals:
  random: 9
  RotateMutation: 3
  CutAndSplicePairing: 4
  RattleMutation: 1
  RippleMutation: 3
DFT relax 19 structures with 2216 scf
construct goodPop
construct keepPop
best ind:
C4H16 enthalpy: -3.2867515365989872, fit: {'enthalpy': 3.2867515365989872}
============ Generation 10 =============
change volRatio from 7.987659955897129 to 7.968398351524337
OP infomation: 
+---------------------+--------------+---------------+------------+
|       Operator      | Probability  | SelectedTimes | SuccessNum |
+---------------------+--------------+---------------+------------+
| CutAndSplicePairing |    14.29%    |       1       |     1      |
|     SlipMutation    |    14.29%    |       3       |     3      |
|   LatticeMutation   |    14.29%    |       2       |     2      |
|    RippleMutation   |    14.29%    |       2       |     2      |
|    RattleMutation   |    14.29%    |       3       |     3      |
|     PermMutation    |    14.29%    |       2       |     0      |
|    RotateMutation   |    14.29%    |       1       |     1      |
+---------------------+--------------+---------------+------------+
Reading Seeds ...
Generate new initial population with 20 individuals:
  SlipMutation: 3
  random: 8
  RotateMutation: 1
  CutAndSplicePairing: 1
  RattleMutation: 3
  RippleMutation: 2
  LatticeMutation: 2
DFT relax 19 structures with 2216 scf
construct goodPop
construct keepPop
best ind:
C4H16 enthalpy: -3.2867515365989872, fit: {'enthalpy': 3.2867515365989872}
============ Generation 11 =============
change volRatio from 7.968398351524337 to 7.9626198702124995
OP infomation: 
+---------------------+--------------+---------------+------------+
|       Operator      | Probability  | SelectedTimes | SuccessNum |
+---------------------+--------------+---------------+------------+
| CutAndSplicePairing |    14.29%    |       2       |     2      |
|     SlipMutation    |    14.29%    |       0       |     0      |
|   LatticeMutation   |    14.29%    |       1       |     1      |
|    RippleMutation   |    14.29%    |       4       |     4      |
|    RattleMutation   |    14.29%    |       4       |     4      |
|     PermMutation    |    14.29%    |       3       |     0      |
|    RotateMutation   |    14.29%    |       1       |     1      |
+---------------------+--------------+---------------+------------+
Reading Seeds ...
Generate new initial population with 20 individuals:
  random: 8
  RotateMutation: 1
  CutAndSplicePairing: 2
  RattleMutation: 4
  RippleMutation: 4
  LatticeMutation: 1
DFT relax 19 structures with 1799 scf
construct goodPop
construct keepPop
best ind:
C4H16 enthalpy: -3.2867515365989872, fit: {'enthalpy': 3.2867515365989872}
============ Generation 12 =============
change volRatio from 7.9626198702124995 to 8.031854699818648
OP infomation: 
+---------------------+--------------+---------------+------------+
|       Operator      | Probability  | SelectedTimes | SuccessNum |
+---------------------+--------------+---------------+------------+
| CutAndSplicePairing |    14.29%    |       1       |     1      |
|     SlipMutation    |    14.29%    |       1       |     1      |
|   LatticeMutation   |    14.29%    |       4       |     4      |
|    RippleMutation   |    14.29%    |       2       |     2      |
|    RattleMutation   |    14.29%    |       2       |     2      |
|     PermMutation    |    14.29%    |       2       |     0      |
|    RotateMutation   |    14.29%    |       2       |     2      |
+---------------------+--------------+---------------+------------+
Reading Seeds ...
Generate new initial population with 20 individuals:
  SlipMutation: 1
  random: 8
  RotateMutation: 2
  CutAndSplicePairing: 1
  RattleMutation: 2
  RippleMutation: 2
  LatticeMutation: 4
DFT relax 20 structures with 1954 scf
construct goodPop
construct keepPop
best ind:
C4H16 enthalpy: -3.2867515365989872, fit: {'enthalpy': 3.2867515365989872}
============ Generation 13 =============
change volRatio from 8.031854699818648 to 8.061043112660931
OP infomation: 
+---------------------+--------------+---------------+------------+
|       Operator      | Probability  | SelectedTimes | SuccessNum |
+---------------------+--------------+---------------+------------+
| CutAndSplicePairing |    14.29%    |       3       |     3      |
|     SlipMutation    |    14.29%    |       0       |     0      |
|   LatticeMutation   |    14.29%    |       0       |     0      |
|    RippleMutation   |    14.29%    |       2       |     2      |
|    RattleMutation   |    14.29%    |       3       |     3      |
|     PermMutation    |    14.29%    |       0       |     0      |
|    RotateMutation   |    14.29%    |       4       |     4      |
+---------------------+--------------+---------------+------------+
Reading Seeds ...
Generate new initial population with 20 individuals:
  random: 8
  RotateMutation: 4
  CutAndSplicePairing: 3
  RattleMutation: 3
  RippleMutation: 2
DFT relax 20 structures with 2048 scf
construct goodPop
construct keepPop
best ind:
C4H16 enthalpy: -3.2867515365989872, fit: {'enthalpy': 3.2867515365989872}
============ Generation 14 =============
change volRatio from 8.061043112660931 to 8.03105317033722
OP infomation: 
+---------------------+--------------+---------------+------------+
|       Operator      | Probability  | SelectedTimes | SuccessNum |
+---------------------+--------------+---------------+------------+
| CutAndSplicePairing |    14.29%    |       2       |     2      |
|     SlipMutation    |    14.29%    |       0       |     0      |
|   LatticeMutation   |    14.29%    |       2       |     2      |
|    RippleMutation   |    14.29%    |       2       |     2      |
|    RattleMutation   |    14.29%    |       4       |     4      |
|     PermMutation    |    14.29%    |       2       |     0      |
|    RotateMutation   |    14.29%    |       2       |     2      |
+---------------------+--------------+---------------+------------+
Reading Seeds ...
Generate new initial population with 20 individuals:
  random: 8
  RotateMutation: 2
  CutAndSplicePairing: 2
  RattleMutation: 4
  RippleMutation: 2
  LatticeMutation: 2
DFT relax 20 structures with 2104 scf
construct goodPop
construct keepPop
best ind:
C4H16 enthalpy: -3.2867515365989872, fit: {'enthalpy': 3.2867515365989872}
============ Generation 15 =============
change volRatio from 8.03105317033722 to 7.973961896809053
OP infomation: 
+---------------------+--------------+---------------+------------+
|       Operator      | Probability  | SelectedTimes | SuccessNum |
+---------------------+--------------+---------------+------------+
| CutAndSplicePairing |    14.29%    |       4       |     4      |
|     SlipMutation    |    14.29%    |       3       |     3      |
|   LatticeMutation   |    14.29%    |       1       |     1      |
|    RippleMutation   |    14.29%    |       0       |     0      |
|    RattleMutation   |    14.29%    |       2       |     2      |
|     PermMutation    |    14.29%    |       2       |     0      |
|    RotateMutation   |    14.29%    |       2       |     2      |
+---------------------+--------------+---------------+------------+
Reading Seeds ...
Generate new initial population with 20 individuals:
  SlipMutation: 3
  random: 8
  RotateMutation: 2
  CutAndSplicePairing: 4
  RattleMutation: 2
  LatticeMutation: 1
DFT relax 19 structures with 1839 scf
construct goodPop
construct keepPop
best ind:
C4H16 enthalpy: -3.2867515365989872, fit: {'enthalpy': 3.2867515365989872}
============ Generation 16 =============
change volRatio from 7.973961896809053 to 8.0030619130633
OP infomation: 
+---------------------+--------------+---------------+------------+
|       Operator      | Probability  | SelectedTimes | SuccessNum |
+---------------------+--------------+---------------+------------+
| CutAndSplicePairing |    14.29%    |       1       |     1      |
|     SlipMutation    |    14.29%    |       2       |     2      |
|   LatticeMutation   |    14.29%    |       2       |     2      |
|    RippleMutation   |    14.29%    |       2       |     2      |
|    RattleMutation   |    14.29%    |       2       |     2      |
|     PermMutation    |    14.29%    |       2       |     0      |
|    RotateMutation   |    14.29%    |       3       |     3      |
+---------------------+--------------+---------------+------------+
Reading Seeds ...
Generate new initial population with 20 individuals:
  SlipMutation: 2
  random: 8
  RotateMutation: 3
  CutAndSplicePairing: 1
  RattleMutation: 2
  RippleMutation: 2
  LatticeMutation: 2
DFT relax 20 structures with 2204 scf
construct goodPop
construct keepPop
best ind:
C4H16 enthalpy: -3.2877067048269426, fit: {'enthalpy': 3.2877067048269426}
============ Generation 17 =============
change volRatio from 8.0030619130633 to 7.989569795377909
OP infomation: 
+---------------------+--------------+---------------+------------+
|       Operator      | Probability  | SelectedTimes | SuccessNum |
+---------------------+--------------+---------------+------------+
| CutAndSplicePairing |    14.29%    |       1       |     1      |
|     SlipMutation    |    14.29%    |       3       |     3      |
|   LatticeMutation   |    14.29%    |       3       |     3      |
|    RippleMutation   |    14.29%    |       3       |     3      |
|    RattleMutation   |    14.29%    |       0       |     0      |
|     PermMutation    |    14.29%    |       1       |     0      |
|    RotateMutation   |    14.29%    |       2       |     2      |
+---------------------+--------------+---------------+------------+
Reading Seeds ...
Generate new initial population with 20 individuals:
  SlipMutation: 3
  random: 8
  RotateMutation: 2
  CutAndSplicePairing: 1
  RippleMutation: 3
  LatticeMutation: 3
DFT relax 20 structures with 1938 scf
construct goodPop
construct keepPop
best ind:
C4H16 enthalpy: -3.2877067048269426, fit: {'enthalpy': 3.2877067048269426}
============ Generation 18 =============
change volRatio from 7.989569795377909 to 8.055064021658596
OP infomation: 
+---------------------+--------------+---------------+------------+
|       Operator      | Probability  | SelectedTimes | SuccessNum |
+---------------------+--------------+---------------+------------+
| CutAndSplicePairing |    14.29%    |       1       |     1      |
|     SlipMutation    |    14.29%    |       3       |     3      |
|   LatticeMutation   |    14.29%    |       1       |     1      |
|    RippleMutation   |    14.29%    |       1       |     1      |
|    RattleMutation   |    14.29%    |       2       |     2      |
|     PermMutation    |    14.29%    |       4       |     0      |
|    RotateMutation   |    14.29%    |       4       |     4      |
+---------------------+--------------+---------------+------------+
Reading Seeds ...
Generate new initial population with 20 individuals:
  SlipMutation: 3
  random: 8
  RotateMutation: 4
  CutAndSplicePairing: 1
  RattleMutation: 2
  RippleMutation: 1
  LatticeMutation: 1
DFT relax 20 structures with 1739 scf
construct goodPop
construct keepPop
best ind:
C4H16 enthalpy: -3.2886454959154605, fit: {'enthalpy': 3.2886454959154605}
============ Generation 19 =============
change volRatio from 8.055064021658596 to 8.154551580291933
OP infomation: 
+---------------------+--------------+---------------+------------+
|       Operator      | Probability  | SelectedTimes | SuccessNum |
+---------------------+--------------+---------------+------------+
| CutAndSplicePairing |    14.29%    |       2       |     2      |
|     SlipMutation    |    14.29%    |       0       |     0      |
|   LatticeMutation   |    14.29%    |       1       |     1      |
|    RippleMutation   |    14.29%    |       3       |     3      |
|    RattleMutation   |    14.29%    |       6       |     6      |
|     PermMutation    |    14.29%    |       1       |     0      |
|    RotateMutation   |    14.29%    |       0       |     0      |
+---------------------+--------------+---------------+------------+
Reading Seeds ...
Generate new initial population with 20 individuals:
  random: 8
  CutAndSplicePairing: 2
  RattleMutation: 6
  RippleMutation: 3
  LatticeMutation: 1
DFT relax 20 structures with 1907 scf
construct goodPop
construct keepPop
best ind:
C4H16 enthalpy: -3.2886454959154605, fit: {'enthalpy': 3.2886454959154605}
============ Generation 20 =============
change volRatio from 8.154551580291933 to 8.077046382194794
OP infomation: 
+---------------------+--------------+---------------+------------+
|       Operator      | Probability  | SelectedTimes | SuccessNum |
+---------------------+--------------+---------------+------------+
| CutAndSplicePairing |    14.29%    |       3       |     3      |
|     SlipMutation    |    14.29%    |       2       |     2      |
|   LatticeMutation   |    14.29%    |       2       |     2      |
|    RippleMutation   |    14.29%    |       1       |     1      |
|    RattleMutation   |    14.29%    |       1       |     1      |
|     PermMutation    |    14.29%    |       2       |     0      |
|    RotateMutation   |    14.29%    |       3       |     3      |
+---------------------+--------------+---------------+------------+
Reading Seeds ...
Generate new initial population with 20 individuals:
  SlipMutation: 2
  random: 8
  RotateMutation: 3
  CutAndSplicePairing: 3
  RattleMutation: 1
  RippleMutation: 1
  LatticeMutation: 2
DFT relax 19 structures with 2055 scf
construct goodPop
construct keepPop
best ind:
C4H16 enthalpy: -3.2886793748170815, fit: {'enthalpy': 3.2886793748170815}
============ Generation 21 =============
change volRatio from 8.077046382194794 to 8.012810050752815
OP infomation: 
+---------------------+--------------+---------------+------------+
|       Operator      | Probability  | SelectedTimes | SuccessNum |
+---------------------+--------------+---------------+------------+
| CutAndSplicePairing |    14.29%    |       1       |     1      |
|     SlipMutation    |    14.29%    |       4       |     4      |
|   LatticeMutation   |    14.29%    |       1       |     1      |
|    RippleMutation   |    14.29%    |       0       |     0      |
|    RattleMutation   |    14.29%    |       4       |     4      |
|     PermMutation    |    14.29%    |       2       |     0      |
|    RotateMutation   |    14.29%    |       2       |     2      |
+---------------------+--------------+---------------+------------+
Reading Seeds ...
Generate new initial population with 20 individuals:
  SlipMutation: 4
  random: 8
  RotateMutation: 2
  CutAndSplicePairing: 1
  RattleMutation: 4
  LatticeMutation: 1
DFT relax 19 structures with 2022 scf
construct goodPop
construct keepPop
best ind:
C4H16 enthalpy: -3.288987155119905, fit: {'enthalpy': 3.288987155119905}
============ Generation 22 =============
change volRatio from 8.012810050752815 to 8.039740670749072
OP infomation: 
+---------------------+--------------+---------------+------------+
|       Operator      | Probability  | SelectedTimes | SuccessNum |
+---------------------+--------------+---------------+------------+
| CutAndSplicePairing |    14.29%    |       2       |     2      |
|     SlipMutation    |    14.29%    |       0       |     0      |
|   LatticeMutation   |    14.29%    |       3       |     3      |
|    RippleMutation   |    14.29%    |       6       |     6      |
|    RattleMutation   |    14.29%    |       1       |     1      |
|     PermMutation    |    14.29%    |       2       |     0      |
|    RotateMutation   |    14.29%    |       0       |     0      |
+---------------------+--------------+---------------+------------+
Reading Seeds ...
Generate new initial population with 20 individuals:
  random: 8
  CutAndSplicePairing: 2
  RattleMutation: 1
  RippleMutation: 6
  LatticeMutation: 3
DFT relax 20 structures with 1931 scf
construct goodPop
construct keepPop
best ind:
C4H16 enthalpy: -3.289045448074598, fit: {'enthalpy': 3.289045448074598}
============ Generation 23 =============
change volRatio from 8.039740670749072 to 8.020394236115648
OP infomation: 
+---------------------+--------------+---------------+------------+
|       Operator      | Probability  | SelectedTimes | SuccessNum |
+---------------------+--------------+---------------+------------+
| CutAndSplicePairing |    14.29%    |       2       |     2      |
|     SlipMutation    |    14.29%    |       1       |     1      |
|   LatticeMutation   |    14.29%    |       1       |     1      |
|    RippleMutation   |    14.29%    |       4       |     4      |
|    RattleMutation   |    14.29%    |       2       |     2      |
|     PermMutation    |    14.29%    |       1       |     0      |
|    RotateMutation   |    14.29%    |       2       |     2      |
+---------------------+--------------+---------------+------------+
Reading Seeds ...
Generate new initial population with 20 individuals:
  SlipMutation: 1
  random: 8
  RotateMutation: 2
  CutAndSplicePairing: 2
  RattleMutation: 2
  RippleMutation: 4
  LatticeMutation: 1
DFT relax 18 structures with 1827 scf
construct goodPop
construct keepPop
best ind:
C4H16 enthalpy: -3.289045448074598, fit: {'enthalpy': 3.289045448074598}
============ Generation 24 =============
change volRatio from 8.020394236115648 to 8.106256619437143
OP infomation: 
+---------------------+--------------+---------------+------------+
|       Operator      | Probability  | SelectedTimes | SuccessNum |
+---------------------+--------------+---------------+------------+
| CutAndSplicePairing |    14.29%    |       0       |     0      |
|     SlipMutation    |    14.29%    |       1       |     1      |
|   LatticeMutation   |    14.29%    |       5       |     5      |
|    RippleMutation   |    14.29%    |       1       |     1      |
|    RattleMutation   |    14.29%    |       3       |     3      |
|     PermMutation    |    14.29%    |       1       |     0      |
|    RotateMutation   |    14.29%    |       2       |     2      |
+---------------------+--------------+---------------+------------+
Reading Seeds ...
Generate new initial population with 20 individuals:
  SlipMutation: 1
  random: 8
  RotateMutation: 2
  RattleMutation: 3
  RippleMutation: 1
  LatticeMutation: 5
DFT relax 20 structures with 2097 scf
construct goodPop
construct keepPop
best ind:
C4H16 enthalpy: -3.289045448074598, fit: {'enthalpy': 3.289045448074598}
============ Generation 25 =============
change volRatio from 8.106256619437143 to 8.029365087530344
OP infomation: 
+---------------------+--------------+---------------+------------+
|       Operator      | Probability  | SelectedTimes | SuccessNum |
+---------------------+--------------+---------------+------------+
| CutAndSplicePairing |    14.29%    |       2       |     2      |
|     SlipMutation    |    14.29%    |       0       |     0      |
|   LatticeMutation   |    14.29%    |       4       |     4      |
|    RippleMutation   |    14.29%    |       3       |     3      |
|    RattleMutation   |    14.29%    |       2       |     2      |
|     PermMutation    |    14.29%    |       1       |     0      |
|    RotateMutation   |    14.29%    |       1       |     1      |
+---------------------+--------------+---------------+------------+
Reading Seeds ...
Generate new initial population with 20 individuals:
  random: 8
  RotateMutation: 1
  CutAndSplicePairing: 2
  RattleMutation: 2
  RippleMutation: 3
  LatticeMutation: 4
DFT relax 20 structures with 1998 scf
construct goodPop
construct keepPop
best ind:
C4H16 enthalpy: -3.289045448074598, fit: {'enthalpy': 3.289045448074598}
============ Generation 26 =============
change volRatio from 8.029365087530344 to 7.9810053089106106
OP infomation: 
+---------------------+--------------+---------------+------------+
|       Operator      | Probability  | SelectedTimes | SuccessNum |
+---------------------+--------------+---------------+------------+
| CutAndSplicePairing |    14.29%    |       2       |     2      |
|     SlipMutation    |    14.29%    |       1       |     1      |
|   LatticeMutation   |    14.29%    |       2       |     2      |
|    RippleMutation   |    14.29%    |       0       |     0      |
|    RattleMutation   |    14.29%    |       3       |     3      |
|     PermMutation    |    14.29%    |       1       |     0      |
|    RotateMutation   |    14.29%    |       4       |     4      |
+---------------------+--------------+---------------+------------+
Reading Seeds ...
Generate new initial population with 20 individuals:
  SlipMutation: 1
  random: 8
  RotateMutation: 4
  CutAndSplicePairing: 2
  RattleMutation: 3
  LatticeMutation: 2
DFT relax 20 structures with 1977 scf
construct goodPop
construct keepPop
best ind:
C4H16 enthalpy: -3.2890635735908886, fit: {'enthalpy': 3.2890635735908886}
============ Generation 27 =============
change volRatio from 7.9810053089106106 to 7.970668772827947
OP infomation: 
+---------------------+--------------+---------------+------------+
|       Operator      | Probability  | SelectedTimes | SuccessNum |
+---------------------+--------------+---------------+------------+
| CutAndSplicePairing |    14.29%    |       1       |     1      |
|     SlipMutation    |    14.29%    |       0       |     0      |
|   LatticeMutation   |    14.29%    |       2       |     2      |
|    RippleMutation   |    14.29%    |       5       |     5      |
|    RattleMutation   |    14.29%    |       3       |     3      |
|     PermMutation    |    14.29%    |       7       |     0      |
|    RotateMutation   |    14.29%    |       1       |     1      |
+---------------------+--------------+---------------+------------+
Reading Seeds ...
Generate new initial population with 20 individuals:
  random: 8
  RotateMutation: 1
  CutAndSplicePairing: 1
  RattleMutation: 3
  RippleMutation: 5
  LatticeMutation: 2
DFT relax 20 structures with 1715 scf
construct goodPop
construct keepPop
best ind:
C4H16 enthalpy: -3.2892295844490134, fit: {'enthalpy': 3.2892295844490134}
============ Generation 28 =============
change volRatio from 7.970668772827947 to 8.14350378933714
OP infomation: 
+---------------------+--------------+---------------+------------+
|       Operator      | Probability  | SelectedTimes | SuccessNum |
+---------------------+--------------+---------------+------------+
| CutAndSplicePairing |    14.29%    |       1       |     1      |
|     SlipMutation    |    14.29%    |       1       |     1      |
|   LatticeMutation   |    14.29%    |       1       |     1      |
|    RippleMutation   |    14.29%    |       4       |     4      |
|    RattleMutation   |    14.29%    |       4       |     4      |
|     PermMutation    |    14.29%    |       1       |     0      |
|    RotateMutation   |    14.29%    |       1       |     1      |
+---------------------+--------------+---------------+------------+
Reading Seeds ...
Generate new initial population with 20 individuals:
  SlipMutation: 1
  random: 8
  RotateMutation: 1
  CutAndSplicePairing: 1
  RattleMutation: 4
  RippleMutation: 4
  LatticeMutation: 1
DFT relax 20 structures with 2003 scf
construct goodPop
construct keepPop
best ind:
C4H16 enthalpy: -3.2892295844490134, fit: {'enthalpy': 3.2892295844490134}
============ Generation 29 =============
change volRatio from 8.14350378933714 to 8.02909613207051
OP infomation: 
+---------------------+--------------+---------------+------------+
|       Operator      | Probability  | SelectedTimes | SuccessNum |
+---------------------+--------------+---------------+------------+
| CutAndSplicePairing |    14.29%    |       2       |     2      |
|     SlipMutation    |    14.29%    |       2       |     2      |
|   LatticeMutation   |    14.29%    |       2       |     2      |
|    RippleMutation   |    14.29%    |       2       |     2      |
|    RattleMutation   |    14.29%    |       2       |     2      |
|     PermMutation    |    14.29%    |       1       |     0      |
|    RotateMutation   |    14.29%    |       2       |     2      |
+---------------------+--------------+---------------+------------+
Reading Seeds ...
Generate new initial population with 20 individuals:
  SlipMutation: 2
  random: 8
  RotateMutation: 2
  CutAndSplicePairing: 2
  RattleMutation: 2
  RippleMutation: 2
  LatticeMutation: 2
DFT relax 20 structures with 1937 scf
construct goodPop
construct keepPop
best ind:
C4H16 enthalpy: -3.2892295844490134, fit: {'enthalpy': 3.2892295844490134}
============ Generation 30 =============
change volRatio from 8.02909613207051 to 8.018279828519436
OP infomation: 
+---------------------+--------------+---------------+------------+
|       Operator      | Probability  | SelectedTimes | SuccessNum |
+---------------------+--------------+---------------+------------+
| CutAndSplicePairing |    14.29%    |       0       |     0      |
|     SlipMutation    |    14.29%    |       1       |     1      |
|   LatticeMutation   |    14.29%    |       2       |     2      |
|    RippleMutation   |    14.29%    |       1       |     1      |
|    RattleMutation   |    14.29%    |       4       |     4      |
|     PermMutation    |    14.29%    |       0       |     0      |
|    RotateMutation   |    14.29%    |       4       |     4      |
+---------------------+--------------+---------------+------------+
Reading Seeds ...
Generate new initial population with 20 individuals:
  SlipMutation: 1
  random: 8
  RotateMutation: 4
  RattleMutation: 4
  RippleMutation: 1
  LatticeMutation: 2
DFT relax 20 structures with 2176 scf
construct goodPop
construct keepPop
best ind:
C4H16 enthalpy: -3.28926832402677, fit: {'enthalpy': 3.28926832402677}
============ Generation 31 =============
change volRatio from 8.018279828519436 to 8.032497893454455
OP infomation: 
+---------------------+--------------+---------------+------------+
|       Operator      | Probability  | SelectedTimes | SuccessNum |
+---------------------+--------------+---------------+------------+
| CutAndSplicePairing |    14.29%    |       2       |     2      |
|     SlipMutation    |    14.29%    |       2       |     2      |
|   LatticeMutation   |    14.29%    |       4       |     4      |
|    RippleMutation   |    14.29%    |       2       |     2      |
|    RattleMutation   |    14.29%    |       1       |     1      |
|     PermMutation    |    14.29%    |       2       |     0      |
|    RotateMutation   |    14.29%    |       1       |     1      |
+---------------------+--------------+---------------+------------+
Reading Seeds ...
Generate new initial population with 20 individuals:
  SlipMutation: 2
  random: 8
  RotateMutation: 1
  CutAndSplicePairing: 2
  RattleMutation: 1
  RippleMutation: 2
  LatticeMutation: 4
DFT relax 20 structures with 1839 scf
construct goodPop
construct keepPop
best ind:
C4H16 enthalpy: -3.28926832402677, fit: {'enthalpy': 3.28926832402677}
============ Generation 32 =============
change volRatio from 8.032497893454455 to 8.07623344549949
OP infomation: 
+---------------------+--------------+---------------+------------+
|       Operator      | Probability  | SelectedTimes | SuccessNum |
+---------------------+--------------+---------------+------------+
| CutAndSplicePairing |    14.29%    |       0       |     0      |
|     SlipMutation    |    14.29%    |       4       |     4      |
|   LatticeMutation   |    14.29%    |       2       |     2      |
|    RippleMutation   |    14.29%    |       1       |     1      |
|    RattleMutation   |    14.29%    |       4       |     4      |
|     PermMutation    |    14.29%    |       2       |     0      |
|    RotateMutation   |    14.29%    |       1       |     1      |
+---------------------+--------------+---------------+------------+
Reading Seeds ...
Generate new initial population with 20 individuals:
  SlipMutation: 4
  random: 8
  RotateMutation: 1
  RattleMutation: 4
  RippleMutation: 1
  LatticeMutation: 2
DFT relax 20 structures with 2096 scf
construct goodPop
construct keepPop
best ind:
C4H16 enthalpy: -3.28926832402677, fit: {'enthalpy': 3.28926832402677}
============ Generation 33 =============
change volRatio from 8.07623344549949 to 8.107940404461793
OP infomation: 
+---------------------+--------------+---------------+------------+
|       Operator      | Probability  | SelectedTimes | SuccessNum |
+---------------------+--------------+---------------+------------+
| CutAndSplicePairing |    14.29%    |       4       |     4      |
|     SlipMutation    |    14.29%    |       1       |     1      |
|   LatticeMutation   |    14.29%    |       3       |     3      |
|    RippleMutation   |    14.29%    |       0       |     0      |
|    RattleMutation   |    14.29%    |       2       |     2      |
|     PermMutation    |    14.29%    |       0       |     0      |
|    RotateMutation   |    14.29%    |       2       |     2      |
+---------------------+--------------+---------------+------------+
Reading Seeds ...
Generate new initial population with 19 individuals:
  SlipMutation: 1
  random: 7
  RotateMutation: 2
  CutAndSplicePairing: 4
  RattleMutation: 2
  LatticeMutation: 3
DFT relax 18 structures with 1997 scf
construct goodPop
construct keepPop
best ind:
C4H16 enthalpy: -3.28926832402677, fit: {'enthalpy': 3.28926832402677}
============ Generation 34 =============
change volRatio from 8.107940404461793 to 8.057021280610359
OP infomation: 
+---------------------+--------------+---------------+------------+
|       Operator      | Probability  | SelectedTimes | SuccessNum |
+---------------------+--------------+---------------+------------+
| CutAndSplicePairing |    14.29%    |       3       |     3      |
|     SlipMutation    |    14.29%    |       4       |     4      |
|   LatticeMutation   |    14.29%    |       1       |     1      |
|    RippleMutation   |    14.29%    |       1       |     1      |
|    RattleMutation   |    14.29%    |       2       |     2      |
|     PermMutation    |    14.29%    |       5       |     0      |
|    RotateMutation   |    14.29%    |       1       |     1      |
+---------------------+--------------+---------------+------------+
Reading Seeds ...
Generate new initial population with 20 individuals:
  SlipMutation: 4
  random: 8
  RotateMutation: 1
  CutAndSplicePairing: 3
  RattleMutation: 2
  RippleMutation: 1
  LatticeMutation: 1
DFT relax 20 structures with 2192 scf
construct goodPop
construct keepPop
best ind:
C4H16 enthalpy: -3.28926832402677, fit: {'enthalpy': 3.28926832402677}
============ Generation 35 =============
change volRatio from 8.057021280610359 to 7.984677943440708
OP infomation: 
+---------------------+--------------+---------------+------------+
|       Operator      | Probability  | SelectedTimes | SuccessNum |
+---------------------+--------------+---------------+------------+
| CutAndSplicePairing |    14.29%    |       2       |     2      |
|     SlipMutation    |    14.29%    |       1       |     1      |
|   LatticeMutation   |    14.29%    |       3       |     3      |
|    RippleMutation   |    14.29%    |       1       |     1      |
|    RattleMutation   |    14.29%    |       1       |     1      |
|     PermMutation    |    14.29%    |       0       |     0      |
|    RotateMutation   |    14.29%    |       4       |     4      |
+---------------------+--------------+---------------+------------+
Reading Seeds ...
Generate new initial population with 20 individuals:
  SlipMutation: 1
  random: 8
  RotateMutation: 4
  CutAndSplicePairing: 2
  RattleMutation: 1
  RippleMutation: 1
  LatticeMutation: 3
DFT relax 20 structures with 1820 scf
construct goodPop
construct keepPop
best ind:
C4H16 enthalpy: -3.28926832402677, fit: {'enthalpy': 3.28926832402677}
============ Generation 36 =============
change volRatio from 7.984677943440708 to 8.023310961889019
OP infomation: 
+---------------------+--------------+---------------+------------+
|       Operator      | Probability  | SelectedTimes | SuccessNum |
+---------------------+--------------+---------------+------------+
| CutAndSplicePairing |    14.29%    |       3       |     3      |
|     SlipMutation    |    14.29%    |       3       |     3      |
|   LatticeMutation   |    14.29%    |       1       |     1      |
|    RippleMutation   |    14.29%    |       3       |     3      |
|    RattleMutation   |    14.29%    |       0       |     0      |
|     PermMutation    |    14.29%    |       3       |     0      |
|    RotateMutation   |    14.29%    |       2       |     2      |
+---------------------+--------------+---------------+------------+
Reading Seeds ...
Generate new initial population with 20 individuals:
  SlipMutation: 3
  random: 8
  RotateMutation: 2
  CutAndSplicePairing: 3
  RippleMutation: 3
  LatticeMutation: 1
DFT relax 18 structures with 1839 scf
construct goodPop
construct keepPop
best ind:
C4H16 enthalpy: -3.28926832402677, fit: {'enthalpy': 3.28926832402677}
============ Generation 37 =============
change volRatio from 8.023310961889019 to 8.024612442268317
OP infomation: 
+---------------------+--------------+---------------+------------+
|       Operator      | Probability  | SelectedTimes | SuccessNum |
+---------------------+--------------+---------------+------------+
| CutAndSplicePairing |    14.29%    |       2       |     2      |
|     SlipMutation    |    14.29%    |       1       |     1      |
|   LatticeMutation   |    14.29%    |       0       |     0      |
|    RippleMutation   |    14.29%    |       4       |     4      |
|    RattleMutation   |    14.29%    |       3       |     3      |
|     PermMutation    |    14.29%    |       4       |     0      |
|    RotateMutation   |    14.29%    |       2       |     2      |
+---------------------+--------------+---------------+------------+
Reading Seeds ...
Generate new initial population with 20 individuals:
  SlipMutation: 1
  random: 8
  RotateMutation: 2
  CutAndSplicePairing: 2
  RattleMutation: 3
  RippleMutation: 4
DFT relax 20 structures with 2047 scf
construct goodPop
construct keepPop
best ind:
C4H16 enthalpy: -3.28926832402677, fit: {'enthalpy': 3.28926832402677}
============ Generation 38 =============
change volRatio from 8.024612442268317 to 8.04795740252209
OP infomation: 
+---------------------+--------------+---------------+------------+
|       Operator      | Probability  | SelectedTimes | SuccessNum |
+---------------------+--------------+---------------+------------+
| CutAndSplicePairing |    14.29%    |       1       |     1      |
|     SlipMutation    |    14.29%    |       2       |     2      |
|   LatticeMutation   |    14.29%    |       4       |     4      |
|    RippleMutation   |    14.29%    |       1       |     1      |
|    RattleMutation   |    14.29%    |       2       |     2      |
|     PermMutation    |    14.29%    |       3       |     0      |
|    RotateMutation   |    14.29%    |       2       |     2      |
+---------------------+--------------+---------------+------------+
Reading Seeds ...
Generate new initial population with 20 individuals:
  SlipMutation: 2
  random: 8
  RotateMutation: 2
  CutAndSplicePairing: 1
  RattleMutation: 2
  RippleMutation: 1
  LatticeMutation: 4
DFT relax 20 structures with 1903 scf
construct goodPop
construct keepPop
best ind:
C4H16 enthalpy: -3.28926832402677, fit: {'enthalpy': 3.28926832402677}
============ Generation 39 =============
change volRatio from 8.04795740252209 to 8.005494833902505
OP infomation: 
+---------------------+--------------+---------------+------------+
|       Operator      | Probability  | SelectedTimes | SuccessNum |
+---------------------+--------------+---------------+------------+
| CutAndSplicePairing |    14.29%    |       0       |     0      |
|     SlipMutation    |    14.29%    |       0       |     0      |
|   LatticeMutation   |    14.29%    |       3       |     3      |
|    RippleMutation   |    14.29%    |       2       |     2      |
|    RattleMutation   |    14.29%    |       3       |     3      |
|     PermMutation    |    14.29%    |       2       |     0      |
|    RotateMutation   |    14.29%    |       4       |     4      |
+---------------------+--------------+---------------+------------+
Reading Seeds ...
Generate new initial population with 20 individuals:
  random: 8
  RotateMutation: 4
  RattleMutation: 3
  RippleMutation: 2
  LatticeMutation: 3
DFT relax 20 structures with 2010 scf
construct goodPop
construct keepPop
best ind:
C4H16 enthalpy: -3.28926832402677, fit: {'enthalpy': 3.28926832402677}
============ Generation 40 =============
change volRatio from 8.005494833902505 to 8.081431793709736
OP infomation: 
+---------------------+--------------+---------------+------------+
|       Operator      | Probability  | SelectedTimes | SuccessNum |
+---------------------+--------------+---------------+------------+
| CutAndSplicePairing |    14.29%    |       1       |     1      |
|     SlipMutation    |    14.29%    |       1       |     1      |
|   LatticeMutation   |    14.29%    |       6       |     6      |
|    RippleMutation   |    14.29%    |       0       |     0      |
|    RattleMutation   |    14.29%    |       2       |     2      |
|     PermMutation    |    14.29%    |       3       |     0      |
|    RotateMutation   |    14.29%    |       2       |     2      |
+---------------------+--------------+---------------+------------+
Reading Seeds ...
Generate new initial population with 20 individuals:
  SlipMutation: 1
  random: 8
  RotateMutation: 2
  CutAndSplicePairing: 1
  RattleMutation: 2
  LatticeMutation: 6
DFT relax 20 structures with 1917 scf
construct goodPop
construct keepPop
best ind:
C4H16 enthalpy: -3.28926832402677, fit: {'enthalpy': 3.28926832402677}
